Place,Name,BirthDate,Team,BodyweightKg,WeightClassKg,Best3SquatKg,Best3BenchKg,Best3DeadliftKg,TotalKg,Sex,Division,Event,Equipment
1,Aleena Joseph,2001-02-25,KER,41.2,43,130,57.5,107.5,295,F,Sub-Juniors,SBD,Single-ply
2,Ashiga Arumugam,2004-12-02,PUD,43,43,105,37.5,110,252.5,F,Sub-Juniors,SBD,Single-ply
3,R Meenatchi,2000-02-19,T N,42.3,43,85,30,100,215,F,Sub-Juniors,SBD,Single-ply
4,R. Ramya,2000-10-22,PUD,43,43,80,27.5,105,212.5,F,Sub-Juniors,SBD,Single-ply
5,Sayma,2001-04-23,DEL,43,43,80,37.5,92.5,210,F,Sub-Juniors,SBD,Single-ply
6,Rohini Modak,2002-11-03,MAH,41.8,43,60,32.5,102.5,195,F,Sub-Juniors,SBD,Single-ply
7,Prachi Yadav,2003-12-12,M P,42.6,43,75,35,85,195,F,Sub-Juniors,SBD,Single-ply
8,Teena Pareek,2002-04-04,RAJ,38.7,43,70,35,85,190,F,Sub-Juniors,SBD,Single-ply
9,Shrashti Batham,2002-08-04,M P,43,43,75,35,80,190,F,Sub-Juniors,SBD,Single-ply
10,Rinki Devi,2004-02-02,U P,35,43,55,35,72.5,162.5,F,Sub-Juniors,SBD,Single-ply
11,Dhavala Sandhya,2000-06-23,A P,40.2,43,45,27.5,85,157.5,F,Sub-Juniors,SBD,Single-ply
12,Aknasha Shukla,2001-12-01,U P,43,43,40,20,80,140,F,Sub-Juniors,SBD,Single-ply
13,Nikita Swami,2003-02-04,HAR,42.5,43,37.5,22.5,55,115,F,Sub-Juniors,SBD,Single-ply
14,Elangbam Thoithoibi Chanu,2001-10-08,MANI,40.6,43,40,20,45,105,F,Sub-Juniors,SBD,Single-ply
15,Elangbam Lenthoinganbi Chanu,2002-02-05,MANI,43,43,30,20,40,90,F,Sub-Juniors,SBD,Single-ply
DQ,Bhagyalaxmi Vaishnav,2000-04-23,TEL,41,43,,,,,F,Sub-Juniors,SBD,Single-ply
1,Aneesha M,2001-12-07,KER,45.8,47,135,67.5,140,342.5,F,Sub-Juniors,SBD,Single-ply
2,Priya,2003-02-24,CHAT,47,47,95,42.5,112.5,250,F,Sub-Juniors,SBD,Single-ply
3,M Minimathi,2004-07-25,PUD,43.7,47,107.5,45,90,242.5,F,Sub-Juniors,SBD,Single-ply
4,Mamindla Srivani,2000-06-16,TEL,45.7,47,90,30,107.5,227.5,F,Sub-Juniors,SBD,Single-ply
5,Sona Kunjumon,2003-05-17,KER,45.8,47,95,30,100,225,F,Sub-Juniors,SBD,Single-ply
6,Sk. Karishma,2004-06-18,A P,46.3,47,75,35,110,220,F,Sub-Juniors,SBD,Single-ply
7,Mahi Chouhan,2004-04-30,RAJ,45.5,47,70,40,100,210,F,Sub-Juniors,SBD,Single-ply
8,Arti Kumari,2004-01-11,HAR,45.7,47,75,35,92.5,202.5,F,Sub-Juniors,SBD,Single-ply
9,Santosh Godara,2001-07-22,RAJ,45.5,47,70,30,100,200,F,Sub-Juniors,SBD,Single-ply
10,Anjali Sinha,2003-08-18,CHAT,45.3,47,75,40,82.5,197.5,F,Sub-Juniors,SBD,Single-ply
11,Parabhjot Kaur,2001-03-15,PUN,45.9,47,72.5,25,95,192.5,F,Sub-Juniors,SBD,Single-ply
12,Snigdha S Rugvedi,2004-03-11,KTK,46.7,47,70,27.5,80,177.5,F,Sub-Juniors,SBD,Single-ply
13,Yengkokpam Rejiya,2003-07-01,MANI,47,47,70,30,75,175,F,Sub-Juniors,SBD,Single-ply
14,Muskan,2000-08-04,DEL,47,47,40,30,70,140,F,Sub-Juniors,SBD,Single-ply
1,Bhagyalekshmi S,2000-03-10,KER,50,52,152.5,57.5,120,330,F,Sub-Juniors,SBD,Single-ply
2,D Harinipriya,2004-01-08,T N,50.5,52,140,52.5,132.5,325,F,Sub-Juniors,SBD,Single-ply
3,Shaik Sadiya Almas,2002-10-27,A P,51.6,52,145,50,122.5,317.5,F,Sub-Juniors,SBD,Single-ply
4,Ankita Machvai,2002-02-09,M P,49.5,52,100,40,115,255,F,Sub-Juniors,SBD,Single-ply
5,G. Samuktha,2002-01-20,PUD,51.7,52,112.5,37.5,92.5,242.5,F,Sub-Juniors,SBD,Single-ply
6,Meenu,2003-08-26,HAR,49.5,52,87.5,37.5,105,230,F,Sub-Juniors,SBD,Single-ply
7,Niketa,2002-02-11,DEL,52,52,90,40,80,210,F,Sub-Juniors,SBD,Single-ply
8,Thengujam Bidyalaxmi Devi,2004-10-17,MANI,50.1,52,85,27.5,85,197.5,F,Sub-Juniors,SBD,Single-ply
9,Deeksha Kashyap,2002-07-10,U P,49.5,52,72.5,30,92.5,195,F,Sub-Juniors,SBD,Single-ply
10,Geeta,2002-04-02,HAR,50.8,52,60,30,85,175,F,Sub-Juniors,SBD,Single-ply
11,Tannu,2003-07-04,DEL,52,52,60,30,82.5,172.5,F,Sub-Juniors,SBD,Single-ply
12,Deep Shikha Chouhan,2002-09-06,RAJ,51.1,52,67.5,32.5,70,170,F,Sub-Juniors,SBD,Single-ply
13,Radhika Rathod P,2002-05-25,GUJ,51.4,52,62.5,30,70,162.5,F,Sub-Juniors,SBD,Single-ply
DQ,Simran Pathania,2002-02-11,H P,51.2,52,,20,55,,F,Sub-Juniors,SBD,Single-ply
1,S. Loga Priya,2000-04-07,T N,55.9,57,160,67.5,130,357.5,F,Sub-Juniors,SBD,Single-ply
2,Jwala Jose L,2000-01-17,KER,55.8,57,142.5,45,127.5,315,F,Sub-Juniors,SBD,Single-ply
3,Preeti Soni,2002-01-01,CHAT,57,57,120,52.5,102.5,275,F,Sub-Juniors,SBD,Single-ply
4,Dhanashree Anil Mahadik,2003-05-27,MAH,55.5,57,120,37.5,110,267.5,F,Sub-Juniors,SBD,Single-ply
5,M. Vijaya Lakshmi,2000-07-25,A P,54,57,92.5,52.5,110,255,F,Sub-Juniors,SBD,Single-ply
6,Neethu Shree Das,2001-11-19,TEL,55.6,57,100,32.5,115,247.5,F,Sub-Juniors,SBD,Single-ply
7,Yogita Pal,2000-03-21,U P,54.3,57,90,35,100,225,F,Sub-Juniors,SBD,Single-ply
8,Riya Mathur,2001-12-01,DEL,57,57,92.5,42.5,90,225,F,Sub-Juniors,SBD,Single-ply
9,Aman Jot Kaur,2000-04-14,PUN,56.4,57,92.5,25,90,207.5,F,Sub-Juniors,SBD,Single-ply
10,Sapna Chauhan,2001-08-07,HAR,52.6,57,65,30,90,185,F,Sub-Juniors,SBD,Single-ply
11,Neha Kachhawa,2004-08-23,RAJ,53.9,57,77.5,25,70,172.5,F,Sub-Juniors,SBD,Single-ply
12,Sakshi Sharma,2002-07-07,M P,57,57,65,30,70,165,F,Sub-Juniors,SBD,Single-ply
13,Maraviya Khushali Bharatbhai,2004-01-22,GUJ,52.1,57,52.5,20,70,142.5,F,Sub-Juniors,SBD,Single-ply
DQ,Sanasam Chaoba,2004-10-20,MANI,52.9,57,87.5,27.5,,,F,Sub-Juniors,SBD,Single-ply
DQ,Prachi Soni,2001-12-08,RAJ,54.2,57,,,,,F,Sub-Juniors,SBD,Single-ply
DQ,Reshma Devi,2000-03-10,HAR,55.3,57,147.5,55,,,F,Sub-Juniors,SBD,Single-ply
1,Hritvika Sardesai,2000-03-31,MAH,62.5,63,145,60,140,345,F,Sub-Juniors,SBD,Single-ply
2,Venizeia Anne Carlo,2000-07-02,KTK,59.1,63,112.5,65,127.5,305,F,Sub-Juniors,SBD,Single-ply
3,M Priya,2000-06-01,T N,60.6,63,120,50,130,300,F,Sub-Juniors,SBD,Single-ply
4,N. Supriya,2001-05-25,TEL,61.4,63,120,40,110,270,F,Sub-Juniors,SBD,Single-ply
5,Umula Samyuktha,2000-06-02,A P,59.7,63,95,40,100,235,F,Sub-Juniors,SBD,Single-ply
6,K Neharika,2003-01-20,TEL,61.4,63,90,30,105,225,F,Sub-Juniors,SBD,Single-ply
7,Anubha Shrivastav,2000-10-20,M P,62.8,63,75,30,107.5,212.5,F,Sub-Juniors,SBD,Single-ply
8,Harsoda Dhruti Suresh Bhai,2002-02-09,GUJ,57.1,63,72.5,35,85,192.5,F,Sub-Juniors,SBD,Single-ply
9,Muskan,2000-09-26,DEL,59.3,63,80,32.5,70,182.5,F,Sub-Juniors,SBD,Single-ply
10,Nongthombam Deepa Chanu,2003-10-19,MANI,57.1,63,62.5,27.5,75,165,F,Sub-Juniors,SBD,Single-ply
11,Vishali Pathania,2000-09-05,H P,58.5,63,40,25,65,130,F,Sub-Juniors,SBD,Single-ply
1,Ajeesha A,2000-10-31,KER,72,72,175,80,135,390,F,Sub-Juniors,SBD,Single-ply
2,Nandana R,2001-11-07,KER,68.5,72,160,77.5,115,352.5,F,Sub-Juniors,SBD,Single-ply
3,Reghu Pranitha,2000-01-19,TEL,71.9,72,145,47.5,142.5,335,F,Sub-Juniors,SBD,Single-ply
4,V. Vishnu Priya,2000-04-15,PUD,71.8,72,150,47.5,135,332.5,F,Sub-Juniors,SBD,Single-ply
5,S Menaga,2000-01-23,T N,67.1,72,122.5,52.5,115,290,F,Sub-Juniors,SBD,Single-ply
6,Nevhiya Oscar Koli,2004-03-28,MAH,69.6,72,125,45,120,290,F,Sub-Juniors,SBD,Single-ply
7,Harpreet Kaur,2001-01-09,PUN,70.2,72,120,47.5,117.5,285,F,Sub-Juniors,SBD,Single-ply
8,Anjali Pawde,2000-05-31,MAH,66.2,72,127.5,45,105,277.5,F,Sub-Juniors,SBD,Single-ply
9,Raj Nandini Purohit,2000-02-13,RAJ,68.4,72,75,47.5,107.5,230,F,Sub-Juniors,SBD,Single-ply
10,K. Gayatri,2000-06-28,A P,64.5,72,60,40,110,210,F,Sub-Juniors,SBD,Single-ply
11,Vishwa Trada,2002-08-04,GUJ,65.3,72,62.5,35,80,177.5,F,Sub-Juniors,SBD,Single-ply
12,Hemanshi Soruthiyu,2001-05-17,GUJ,66.1,72,65,22.5,85,172.5,F,Sub-Juniors,SBD,Single-ply
DQ,Varsha,2004-06-26,DEL,64.6,72,50,,,,F,Sub-Juniors,SBD,Single-ply
1,Abhirami M. V,2000-02-13,KER,83.9,84,202.5,90,157.5,450,F,Sub-Juniors,SBD,Single-ply
2,Navya Prasad,2001-11-14,KER,75,84,147.5,65,145,357.5,F,Sub-Juniors,SBD,Single-ply
3,P Revati,2001-10-13,TEL,82.1,84,145,40,110,295,F,Sub-Juniors,SBD,Single-ply
4,J Supriya,2003-08-25,TEL,81.3,84,120,37.5,127.5,285,F,Sub-Juniors,SBD,Single-ply
5,Veeralakshmi,2002-09-23,T N,74.1,84,127.5,47.5,100,275,F,Sub-Juniors,SBD,Single-ply
6,Manreet Kaur,2001-08-14,PUN,79.9,84,112.5,50,105,267.5,F,Sub-Juniors,SBD,Single-ply
7,Neelam Dangi,2001-04-02,RAJ,79.7,84,95,35,92.5,222.5,F,Sub-Juniors,SBD,Single-ply
8,Aki Lavanya,2002-07-04,A P,74.4,84,85,37.5,97.5,220,F,Sub-Juniors,SBD,Single-ply
9,Bheemarasetti Sai Sumitra Devi,2001-05-10,A P,74.1,84,70,30,95,195,F,Sub-Juniors,SBD,Single-ply
10,Goswami Bhavika,2002-09-16,GUJ,76.7,84,75,30,82.5,187.5,F,Sub-Juniors,SBD,Single-ply
11,V. Pavithra,2001-12-31,PUD,83.1,84,70,30,85,185,F,Sub-Juniors,SBD,Single-ply
12,Anjali,2002-05-19,H P,77.4,84,40,20,70,130,F,Sub-Juniors,SBD,Single-ply
DQ,S Jenifer,2002-07-22,T N,74.8,84,112.5,,,,F,Sub-Juniors,SBD,Single-ply
1,P Nishanthi,2001-06-05,T N,104,84+,190,62.5,202.5,455,F,Sub-Juniors,SBD,Single-ply
2,Pranjal Solanki,2001-03-12,M P,99.8,84+,145,60,137.5,342.5,F,Sub-Juniors,SBD,Single-ply
3,D. Bhavika,2000-02-02,CHAT,90,84+,130,55,120,305,F,Sub-Juniors,SBD,Single-ply
4,I. Narmadha,2001-01-19,PUD,99.5,84+,70,40,105,215,F,Sub-Juniors,SBD,Single-ply
5,Tamanna Singh,2003-04-06,M P,90,84+,60,35,115,210,F,Sub-Juniors,SBD,Single-ply
1,Dharuv Raj Kure,2002-02-06,MP,52.5,53,170,87.5,180,437.5,M,Sub-Juniors,SBD,Single-ply
2,M Anbarasan,2000-08-21,PUD,53,53,170,85,167.5,422.5,M,Sub-Juniors,SBD,Single-ply
3,Devendra Vyas,2000-08-10,RAJ,51,53,170,85,165,420,M,Sub-Juniors,SBD,Single-ply
4,K. J. Abhiram,2001-12-28,AP,52.5,53,140,70,167.5,377.5,M,Sub-Juniors,SBD,Single-ply
5,Anurag Gautam,2000-10-08,MAH,43.9,53,155,65,155,375,M,Sub-Juniors,SBD,Single-ply
6,Deepak Kumar Verma,2000-02-05,UP,52.7,53,137.5,75,162.5,375,M,Sub-Juniors,SBD,Single-ply
7,S. Naveen,2001-08-22,TN,50.6,53,142.5,70,160,372.5,M,Sub-Juniors,SBD,Single-ply
8,Yedukrishnan V,2000-08-23,KER,53,53,135,65,160,360,M,Sub-Juniors,SBD,Single-ply
9,Khushal Patel,2002-12-02,CHAT,52.3,53,125,72.5,160,357.5,M,Sub-Juniors,SBD,Single-ply
10,Yuvraj Singh Chouhan,2002-07-23,RAJ,53,53,125,67.5,140,332.5,M,Sub-Juniors,SBD,Single-ply
11,M Chakrapani,2000-05-13,TEL,53,53,130,55,145,330,M,Sub-Juniors,SBD,Single-ply
12,Rostan Emanuel Lobo,2000-12-03,KTK,52,53,95,80,140,315,M,Sub-Juniors,SBD,Single-ply
13,Solanki Ashish Kumar,2001-08-11,GUJ,49.6,53,100,70,132.5,302.5,M,Sub-Juniors,SBD,Single-ply
14,Ajay Singh,2002-10-23,HAR,52.5,53,120,57.5,125,302.5,M,Sub-Juniors,SBD,Single-ply
15,Thongam Rakesh,2000-01-18,MANI,52.6,53,100,65,122.5,287.5,M,Sub-Juniors,SBD,Single-ply
16,Manish Dixit,2002-07-12,UP,51.1,53,100,62.5,120,282.5,M,Sub-Juniors,SBD,Single-ply
17,Ankush,2000-09-05,HP,52.9,53,90,57.5,130,277.5,M,Sub-Juniors,SBD,Single-ply
18,Vishal,2002-12-18,DEL,52.5,53,107.5,55,110,272.5,M,Sub-Juniors,SBD,Single-ply
19,Maibam Ibomcha Meitei,2002-03-16,MANI,52.1,53,100,40,105,245,M,Sub-Juniors,SBD,Single-ply
20,P Harsh,2001-02-10,CHAT,45.8,53,80,45,110,235,M,Sub-Juniors,SBD,Single-ply
21,Sachin,2004-05-03,HAR,44.3,53,60,42.5,85,187.5,M,Sub-Juniors,SBD,Single-ply
DQ,Soni Dhruv Chandrakanthai,2001-11-17,GUJ,51.3,53,75,,90,,M,Sub-Juniors,SBD,Single-ply
DQ,E Ilayabharathi,2000-02-19,PUD,51.4,53,180,80,,,M,Sub-Juniors,SBD,Single-ply
DQ,Sachin,2001-11-06,HP,53,53,80,,,,M,Sub-Juniors,SBD,Single-ply
1,R. Ravisha,2000-05-30,PUD,58,59,210,105,210,525,M,Sub-Juniors,SBD,Single-ply
2,Bijin Sanki,2000-03-20,KER,58,59,170,107.5,207.5,485,M,Sub-Juniors,SBD,Single-ply
3,Yogender Yadav,2002-03-23,DEL,58.9,59,182.5,125,177.5,485,M,Sub-Juniors,SBD,Single-ply
4,Sidhan. S,2000-09-18,KER,56.3,59,170,75,160,405,M,Sub-Juniors,SBD,Single-ply
5,Gopal Kumar,2001-06-10,JHK,57.9,59,132.5,90,152.5,375,M,Sub-Juniors,SBD,Single-ply
6,Sangle Aman P,2002-01-21,GUJ,56.6,59,140,65,160,365,M,Sub-Juniors,SBD,Single-ply
7,J Rajashekar,2000-03-15,TEL,58.3,59,130,55,155,340,M,Sub-Juniors,SBD,Single-ply
8,Subham Bhattacharjee,2001-09-18,ASM,59,59,120,70,150,340,M,Sub-Juniors,SBD,Single-ply
9,Kush Mali,2000-11-01,MP,54.8,59,110,67.5,155,332.5,M,Sub-Juniors,SBD,Single-ply
10,Swapnil Chandanshive,2000-05-16,MAH,56.9,59,110,55,145,310,M,Sub-Juniors,SBD,Single-ply
11,Deepak Jangra,2000-09-13,HAR,56.2,59,95,65,135,295,M,Sub-Juniors,SBD,Single-ply
12,Sandeep P,2000-04-29,AP,53.5,59,80,65,140,285,M,Sub-Juniors,SBD,Single-ply
13,Sudhansh Kumar,2001-11-17,HP,58,59,60,57.5,135,252.5,M,Sub-Juniors,SBD,Single-ply
14,Akash Pathania,2004-02-02,HP,59,59,70,40,100,210,M,Sub-Juniors,SBD,Single-ply
DQ,Sangram Singh,2002-07-18,UP,55.6,59,110,60,,,M,Sub-Juniors,SBD,Single-ply
DQ,Abhishek Kumar,2000-07-26,PUN,58.6,59,,,,,M,Sub-Juniors,SBD,Single-ply
DQ,Naorem Ricky,2003-07-03,MANI,60.8,66,,,,,M,Sub-Juniors,SBD,Single-ply
1,T. Vamshi Krishna,2000-12-13,TEL,65.9,66,195,120,202.5,517.5,M,Sub-Juniors,SBD,Single-ply
2,Pushkraj Sardesai,2001-10-12,MAH,66,66,180,92.5,202.5,475,M,Sub-Juniors,SBD,Single-ply
3,Sidhan Jimmy,2000-07-22,KER,65.2,66,185,100,172.5,457.5,M,Sub-Juniors,SBD,Single-ply
4,Vishnu Sahajan,2000-10-03,KER,65.5,66,180,90,170,440,M,Sub-Juniors,SBD,Single-ply
5,R Prakash,2000-03-20,TN,66,66,167.5,100,170,437.5,M,Sub-Juniors,SBD,Single-ply
6,Lav Mali,2001-01-11,MP,65.7,66,135,90,167.5,392.5,M,Sub-Juniors,SBD,Single-ply
7,Babunuru Viswanadh,2001-02-03,AP,65.4,66,135,70,170,375,M,Sub-Juniors,SBD,Single-ply
8,Ayush Pathania,2001-08-26,HP,61.3,66,120,65,160,345,M,Sub-Juniors,SBD,Single-ply
9,C Gugan,2001-01-08,TN,63,66,110,67.5,167.5,345,M,Sub-Juniors,SBD,Single-ply
10,Harsh Gupta,2000-09-15,UP,63,66,130,65,150,345,M,Sub-Juniors,SBD,Single-ply
11,Meisnam Ronaldo Singh,2000-04-02,MANI,64.2,66,130,65,150,345,M,Sub-Juniors,SBD,Single-ply
12,Vance Fallon Carlo,2003-01-12,KTK,61.5,66,112.5,92.5,132.5,337.5,M,Sub-Juniors,SBD,Single-ply
13,Abid Ahmad,2000-07-16,UP,64.6,66,100,75,160,335,M,Sub-Juniors,SBD,Single-ply
14,M Dinesh,2000-11-25,PUD,62.4,66,105,45,130,280,M,Sub-Juniors,SBD,Single-ply
15,Kuldeep,2000-10-03,HAR,61,66,85,60,110,255,M,Sub-Juniors,SBD,Single-ply
16,Dhobi Jesal M,2001-10-25,GUJ,59.1,66,75,50,95,220,M,Sub-Juniors,SBD,Single-ply
17,Ishwar Singh,2000-05-20,H P,62.4,66,60,40,110,210,M,Sub-Juniors,SBD,Single-ply
18,Jatin.J,2002-12-28,CHAT,60.6,66,65,30,100,195,M,Sub-Juniors,SBD,Single-ply
DQ,Naresh Ramawat,2002-12-17,RAJ,59.5,66,,,,,M,Sub-Juniors,SBD,Single-ply
DQ,Thingujam Lanchenba Singh,2004-03-23,MANI,61.3,66,80,,,,M,Sub-Juniors,SBD,Single-ply
DQ,R Balakrishnan,2000-03-20,A&D,62.3,66,,,,,M,Sub-Juniors,SBD,Single-ply
1,D. Praveen Yadav,2000-01-21,TEL,74,74,230,132.5,240,602.5,M,Sub-Juniors,SBD,Single-ply
2,M K Lalitheswara Rao,2000-02-16,A P,73.6,74,230,90,212.5,532.5,M,Sub-Juniors,SBD,Single-ply
3,Abhishek Sharma,2001-07-01,PUN,72,74,195,110,210,515,M,Sub-Juniors,SBD,Single-ply
4,Anuj Gaur,2001-06-22,DEL,67.9,74,175,110,225,510,M,Sub-Juniors,SBD,Single-ply
5,Himanshu Shokeen,2000-05-08,DEL,73,74,190,125,185,500,M,Sub-Juniors,SBD,Single-ply
6,Yagyesh Ojha,2000-01-20,RAJ,69.5,74,192.5,115,190,497.5,M,Sub-Juniors,SBD,Single-ply
7,Ananthakrishna K.S,2000-08-17,KER,73,74,190,100,200,490,M,Sub-Juniors,SBD,Single-ply
8,M Tharun Raj,2001-09-30,PUD,72.1,74,200,90,180,470,M,Sub-Juniors,SBD,Single-ply
9,Tarun,2000-03-22,HAR,73.7,74,180,97.5,170,447.5,M,Sub-Juniors,SBD,Single-ply
10,A Jafrin,2000-03-07,T N,73.9,74,175,97.5,172.5,445,M,Sub-Juniors,SBD,Single-ply
11,Raj Pardesai,2000-01-14,MAH,70.9,74,125,85,180,390,M,Sub-Juniors,SBD,Single-ply
12,B. Anil Kumar,2000-03-22,A P,73.5,74,140,75,175,390,M,Sub-Juniors,SBD,Single-ply
13,Kavishwar Dhule,2000-02-17,MAH,70.8,74,135,60,170,365,M,Sub-Juniors,SBD,Single-ply
14,Sunny Singh,2001-08-20,HAR,66.1,74,110,70,140,320,M,Sub-Juniors,SBD,Single-ply
15,Anirudh Sharma,2001-06-17,H P,66.6,74,105,60,130,295,M,Sub-Juniors,SBD,Single-ply
16,Martin Konjengbam,2001-12-07,MANI,72.6,74,90,52.5,130,272.5,M,Sub-Juniors,SBD,Single-ply
17,Priyanshu Soni,2002-05-21,CHAT,73.1,74,95,50,110,255,M,Sub-Juniors,SBD,Single-ply
18,Rohit Chandrawanshi,2001-07-11,CHAT,67.1,74,70,55,120,245,M,Sub-Juniors,SBD,Single-ply
19,Shajith Hameed,2001-12-09,A&D,69.2,74,80,40,120,240,M,Sub-Juniors,SBD,Single-ply
DQ,Nirmal Singh,2001-11-19,M P,67.9,74,,,,,M,Sub-Juniors,SBD,Single-ply
1,Vishal,2000-03-07,DEL,81.3,83,210,180,215,605,M,Sub-Juniors,SBD,Single-ply
2,S. Naveen,2001-07-26,T N,81,83,240,125,225,590,M,Sub-Juniors,SBD,Single-ply
3,Rahul Joshi,2000-04-20,RAJ,78.8,83,220,132.5,225,577.5,M,Sub-Juniors,SBD,Single-ply
4,Jigender Ram,2000-05-05,JHK,82,83,220,145,200,565,M,Sub-Juniors,SBD,Single-ply
5,Dipak Shelake,2000-08-03,MAH,81.8,83,210,110,237.5,557.5,M,Sub-Juniors,SBD,Single-ply
6,Kartik Keshav Nayak,2001-08-15,MAH,81.4,83,185,95,210,490,M,Sub-Juniors,SBD,Single-ply
7,Soram Sunil Singh,2002-03-25,MANI,79.5,83,200,90,180,470,M,Sub-Juniors,SBD,Single-ply
8,P. Lakshman Reddy,2001-05-25,A P,79.8,83,185,92.5,190,467.5,M,Sub-Juniors,SBD,Single-ply
9,Abhijith S,2003-04-16,KER,81.6,83,180,112.5,170,462.5,M,Sub-Juniors,SBD,Single-ply
10,Ananthu S,2000-04-18,KER,74.1,83,180,90,175,445,M,Sub-Juniors,SBD,Single-ply
11,Tayyab,2000-01-01,HAR,79.8,83,150,75,175,400,M,Sub-Juniors,SBD,Single-ply
12,Niraj Panwar,2001-02-05,M P,82.1,83,150,70,170,390,M,Sub-Juniors,SBD,Single-ply
13,Virendra Singh Chouhan,2003-06-26,M P,78,83,160,60,160,380,M,Sub-Juniors,SBD,Single-ply
14,Shivam Awasthi,2001-12-21,U P,78.8,83,137.5,87.5,145,370,M,Sub-Juniors,SBD,Single-ply
15,E Ragul,2000-09-03,PUD,78.8,83,140,52.5,165,357.5,M,Sub-Juniors,SBD,Single-ply
16,Pokar Nirav Ketanbhai,2001-08-26,GUJ,83,83,120,80,157.5,357.5,M,Sub-Juniors,SBD,Single-ply
17,Y D Yashwanth Gowd,2002-06-04,A P,79.5,83,90,50,120,260,M,Sub-Juniors,SBD,Single-ply
DQ,Aaron Prabhu Raj,2001-08-06,HAR,75.5,83,,,,,M,Sub-Juniors,SBD,Single-ply
DQ,T Uday Tripathi,2003-03-18,A&D,78.4,83,90,,,,M,Sub-Juniors,SBD,Single-ply
DQ,Satpal Singh,2001-02-03,PUN,81.4,83,,,,,M,Sub-Juniors,SBD,Single-ply
DQ,Uduthala Lokesh Goud,2000-02-13,TEL,82,83,225,92.5,,,M,Sub-Juniors,SBD,Single-ply
1,Varshith S. Rao,2002-02-25,KTK,91.4,93,220,140,227.5,587.5,M,Sub-Juniors,SBD,Single-ply
2,Nakul Shokeen,2000-07-01,DEL,89.2,93,225,155,205,585,M,Sub-Juniors,SBD,Single-ply
3,Khunaijam Sunder Singh,2000-03-05,MANI,89.4,93,190,137.5,200,527.5,M,Sub-Juniors,SBD,Single-ply
4,K Gokul Prasath,2001-01-10,T N,83.1,93,200,110,200,510,M,Sub-Juniors,SBD,Single-ply
5,M Ariharan,2000-10-12,PUD,87.6,93,195,80,210,485,M,Sub-Juniors,SBD,Single-ply
6,Daksh Singh Chouhan,2004-04-19,RAJ,83.1,93,202.5,100,175,477.5,M,Sub-Juniors,SBD,Single-ply
7,Deep Prajapati,2002-02-07,U P,86.9,93,175,100,197.5,472.5,M,Sub-Juniors,SBD,Single-ply
8,Sanskar Singh Parihar,2000-11-07,M P,89.8,93,175,105,190,470,M,Sub-Juniors,SBD,Single-ply
9,Lakki Reddy Sharath Chandra Reddy,2001-05-26,TEL,84,93,190,85,180,455,M,Sub-Juniors,SBD,Single-ply
10,C Sai Kumar Yadav,2000-05-14,TEL,87.8,93,177.5,80,150,407.5,M,Sub-Juniors,SBD,Single-ply
11,Jagani Nishant Bhaveshbhai,2002-10-11,GUJ,83.1,93,120,65,145,330,M,Sub-Juniors,SBD,Single-ply
12,Shagun Uppadhiya,2001-09-20,H P,88.1,93,95,55,145,295,M,Sub-Juniors,SBD,Single-ply
DQ,R Valiy Seva Ram,2000-07-30,A&D,83.7,93,80,,,,M,Sub-Juniors,SBD,Single-ply
DQ,Ganesh Sanjay Thote,2000-12-13,MAH,91.8,93,,,,,M,Sub-Juniors,SBD,Single-ply
1,Anex Ron Philip,2000-03-24,KER,104.1,105,250,132.5,215,597.5,M,Sub-Juniors,SBD,Single-ply
2,Sidharth Khatri,2000-01-01,DEL,103.9,105,200,172.5,210,582.5,M,Sub-Juniors,SBD,Single-ply
3,Yogesh Ganesan,2000-12-04,PUD,94.4,105,205,80,215,500,M,Sub-Juniors,SBD,Single-ply
4,Avinash Kumar Dubey,2003-11-07,UP,97.9,105,150,137.5,160,447.5,M,Sub-Juniors,SBD,Single-ply
5,S Venkatesan,2000-07-11,TN,98.4,105,155,75,170,400,M,Sub-Juniors,SBD,Single-ply
6,K Venkata Kalyan,2001-12-18,AP,95.4,105,140,70,142.5,352.5,M,Sub-Juniors,SBD,Single-ply
7,Lucky Palkeria,2001-11-06,HP,104.6,105,120,60,130,310,M,Sub-Juniors,SBD,Single-ply
8,Priyobarta Raj Kumar,2001-08-31,MANI,98.2,105,105,62.5,125,292.5,M,Sub-Juniors,SBD,Single-ply
9,S Anand Kumar,2001-05-14,A&D,100.5,105,100,50,130,280,M,Sub-Juniors,SBD,Single-ply
DQ,K. Sagar,2000-03-06,TEL,102.6,105,,,,,M,Sub-Juniors,SBD,Single-ply
DQ,Durgesh Deep,2001-09-04,CHAT,105,105,,,,,M,Sub-Juniors,SBD,Single-ply
1,Dileep Deepak Rao,2000-07-21,KER,106.9,120,240,100,182.5,522.5,M,Sub-Juniors,SBD,Single-ply
2,Nikhil Saini,2000-12-29,RAJ,110.2,120,205,100,205,510,M,Sub-Juniors,SBD,Single-ply
3,Kushagra Joshi,2001-01-15,MAH,118.2,120,207.5,85,210,502.5,M,Sub-Juniors,SBD,Single-ply
4,P. Nishanth,2001-10-20,TN,118.8,120,200,97.5,200,497.5,M,Sub-Juniors,SBD,Single-ply
5,Rohit Ojha,2002-10-07,RAJ,116.9,120,192.5,110,192.5,495,M,Sub-Juniors,SBD,Single-ply
6,Kuljit Singh,2001-03-08,PUN,120,120,185,75,175,435,M,Sub-Juniors,SBD,Single-ply
1,Sandeep Singh,2000-03-23,PUN,132.3,120+,192.5,140,195,527.5,M,Sub-Juniors,SBD,Single-ply
2,Tanishq Grover,2002-05-01,MP,121.7,120+,185,100,140,425,M,Sub-Juniors,SBD,Single-ply
3,S Harinath,2000-07-03,PUD,129.4,120+,170,67.5,162.5,400,M,Sub-Juniors,SBD,Single-ply
4,Shinoj Mathew,2001-11-28,MAH,127.7,120+,180,70,140,390,M,Sub-Juniors,SBD,Single-ply
DQ,Harpreet Singh,2000-05-11,RAJ,120.1,120+,205,,,,M,Sub-Juniors,SBD,Single-ply
DQ,Leynee,2002-09-08,A&D,121.3,120+,,,,,M,Sub-Juniors,SBD,Single-ply
