Place,Name,Sex,BirthDate,Age,Equipment,Division,BodyweightKg,WeightClassKg,Squat1Kg,Squat2Kg,Squat3Kg,Best3SquatKg,Bench1Kg,Bench2Kg,Bench3Kg,Best3BenchKg,Deadlift1Kg,Deadlift2Kg,Deadlift3Kg,Best3DeadliftKg,TotalKg,Event,Team
1,Elsy Suany Julissa Xol Ico,F,2002-04-20,19,Raw,Juniors,46.5,47,65.77,72.57,74.84,74.84,31.75,34.02,38.56,38.56,70.31,83.91,92.99,92.99,206.38,SBD,Alta Verapaz
2,Ursula Floridalma Gomez Jesus,F,2001-06-29,19,Raw,Juniors,44.6,47,56.7,61.23,,61.23,36.29,38.56,,38.56,65.77,70.31,74.84,74.84,174.63,SBD,Huehuetenango
1,Leilany Alejandra Gonzalez Campo,F,2001-09-18,19,Raw,Juniors,48,52,102.06,106.59,108.86,108.86,61.23,63.5,-65.77,63.5,111.13,115.67,124.74,124.74,297.1,SBD,Escuintla
2,Heidi Karina Hernandez Estrada,F,2002-09-11,18,Raw,Juniors,49,52,56.7,61.23,,61.23,27.22,-29.48,,27.22,74.84,79.38,,79.38,167.83,SBD,Jalapa
1,Eva Maria Calderin Barrios,F,1999-08-30,21,Raw,Juniors,55,57,142.88,-147.42,-151.95,142.88,65.77,70.31,72.57,72.57,142.88,151.95,-156.49,151.95,367.41,SBD,Guatemala
2,Carol Yesenia Martinez Velasquez,F,1998-01-22,23,Raw,Juniors,56.4,57,102.06,115.67,,115.67,43.09,49.9,,49.9,102.06,111.13,,111.13,276.69,SBD,Chimaltenango
3,Zuleyda Rachell Gil Cabrera,F,2001-05-05,20,Raw,Juniors,53,57,70.31,74.84,88.45,88.45,38.56,43.09,45.36,45.36,102.06,-111.13,-115.67,102.06,235.87,SBD,Escuintla
4,Alejandra Rosibel Laynez Lopez,F,2001-11-26,19,Raw,Juniors,56.6,57,79.38,88.45,90.72,90.72,38.56,45.36,47.63,47.63,92.99,-102.06,-104.33,92.99,231.33,SBD,Quiche
5,Karla Celeste Tot Hercules,F,1999-09-27,21,Raw,Juniors,56.1,57,61.23,72.57,-83.91,72.57,34.02,43.09,,43.09,72.57,86.18,92.99,92.99,208.65,SBD,Alta Verapaz
1,Milvia Aracely Chajón Car,F,1998-08-30,22,Raw,Juniors,83.51,84,83.91,92.99,97.52,97.52,34.02,38.56,40.82,40.82,92.99,102.06,,102.06,240.4,SBD,Chimaltenango
1,Lilian Marleny Chub Caal,F,2003-12-03,17,Raw,Sub-Juniors,41.8,43,61.23,63.5,-70.31,63.5,29.48,,,29.48,61.23,65.77,70.31,70.31,163.29,SBD,Alta Verapaz
2,Candelaria Pascuala Eliza Xiquin Calel,F,2005-01-27,16,Raw,Sub-Juniors,40.92,43,43.09,45.36,52.16,52.16,22.68,24.95,27.22,27.22,52.16,54.43,61.23,61.23,140.61,SBD,Quiche
3,Deny Julliza Arias Gonzalez,F,2005-08-17,15,Raw,Sub-Juniors,40.9,43,38.56,40.82,43.09,43.09,24.95,27.22,-29.48,27.22,52.16,56.7,61.23,61.23,131.54,SBD,Escuintla
1,Melanny Secundina Noemi Perez Pu,F,2005-02-02,16,Raw,Sub-Juniors,44.36,47,54.43,61.23,63.5,63.5,29.48,34.02,38.56,38.56,-61.23,70.31,83.91,83.91,185.97,SBD,Quiche
2,Jeimy Carolina Martinez Lopez,F,2007-01-05,14,Raw,Sub-Juniors,45.9,47,52.16,61.23,65.77,65.77,27.22,31.75,34.02,34.02,70.31,77.11,81.65,81.65,181.44,SBD,Guatemala
3,Karla Cristina Angel Lopez,F,2004-07-16,16,Raw,Sub-Juniors,46.4,47,52.16,61.23,65.77,65.77,22.68,24.95,27.22,27.22,74.84,-79.38,-81.65,74.84,167.83,SBD,Escuintla
4,Darolyn Ana Lisceth Cardona Morales,F,2004-04-05,17,Raw,Sub-Juniors,44.1,47,45.36,47.63,49.9,49.9,22.68,,,22.68,47.63,52.16,,52.16,124.74,SBD,Huehuetenango
1,Ashly Julissa Garcia Rodriguez,F,2004-01-07,17,Raw,Sub-Juniors,51.4,52,47.63,52.16,56.7,56.7,24.95,29.48,34.02,34.02,61.23,65.77,79.38,79.38,170.1,SBD,Escuintla
2,Victoria Carmelita Vásquez Pérez,F,2004-01-04,17,Raw,Sub-Juniors,48.5,52,52.16,54.43,,54.43,24.95,27.22,34.02,34.02,52.16,56.7,58.97,58.97,147.42,SBD,Huehuetenango
1,Emily Yulissa Naidely Caal Caal,F,2004-11-12,16,Raw,Sub-Juniors,56.7,57,72.57,88.45,92.99,92.99,43.09,52.16,,52.16,92.99,102.06,106.59,106.59,251.74,SBD,Alta Verapaz
2,Astrid Marilany Bartolome Hernandez,F,2007-03-07,14,Raw,Sub-Juniors,53.3,57,34.02,38.56,40.82,40.82,22.68,24.95,27.22,27.22,52.16,56.7,58.97,58.97,127.01,SBD,Huehuetenango
DQ,Lourdes Ninoshka Garcia Morataya,F,2004-10-11,16,Raw,Sub-Juniors,55.9,57,54.43,61.23,65.77,65.77,34.02,36.29,38.56,38.56,-83.91,-86.18,-88.45,,,SBD,Guatemala
1,Dulce Maria Hernandez Castro,F,2003-10-11,17,Raw,Sub-Juniors,59.8,63,43.09,47.63,52.16,52.16,20.41,24.95,27.22,27.22,43.09,52.16,-56.7,52.16,131.54,SBD,Chimaltenango
1,Angel Adriana Vasquez Tepaz,F,2006-01-11,15,Raw,Sub-Juniors,63.1,69,52.16,56.7,61.23,61.23,29.48,34.02,36.29,36.29,70.31,74.84,79.38,79.38,176.9,SBD,Chimaltenango
1,Cristel Maria Belen Pascual Moscoso,F,2007-12-14,13,Raw,Sub-Juniors,72,76,29.48,34.02,36.29,36.29,20.41,22.68,,22.68,43.09,52.16,61.23,61.23,120.2,SBD,Huehuetenango
1,Sara Galilea Quib Quib,F,2006-02-03,15,Raw,Sub-Juniors,79.3,84,133.81,-151.95,,133.81,74.84,83.91,,83.91,124.74,-142.88,,124.74,342.46,SBD,Alta Verapaz
1,Marvin Eduardo Leon Tavico,M,2002-01-22,19,Raw,Juniors,50.26,53,124.74,129.27,133.81,133.81,61.23,63.5,65.77,65.77,133.81,136.08,142.88,142.88,342.46,SBD,Quiche
1,Emerson Vicente Tipaz Taquiej,M,2001-02-15,20,Raw,Juniors,57.06,59,142.88,147.42,154.22,154.22,86.18,90.72,97.52,97.52,179.17,183.7,185.97,185.97,437.72,SBD,Quiche
2,Michael Oliverio Chen Ico,M,1998-12-10,22,Raw,Juniors,56.9,59,142.88,151.95,,151.95,83.91,88.45,-90.72,88.45,174.63,,,174.63,415.04,SBD,Alta Verapaz
3,Jose Fernando Ical,M,1999-05-16,22,Raw,Juniors,58.5,59,151.95,158.76,,158.76,74.84,83.91,,83.91,158.76,165.56,,165.56,408.23,SBD,Jalapa
4,Axel Rafael Díaz Veliz,M,2002-04-22,19,Raw,Juniors,58.5,59,102.06,115.67,120.2,120.2,74.84,79.38,,79.38,142.88,147.42,151.95,151.95,351.53,SBD,Guatemala
5,Luis Emilio Carranza Morataya,M,1998-04-14,23,Raw,Juniors,55.9,59,79.38,81.65,83.91,83.91,61.23,74.84,77.11,77.11,102.06,115.67,142.88,142.88,303.91,SBD,Escuintla
1,Daniel de Jesús Díaz Guerra,M,2002-02-11,19,Raw,Juniors,65.65,66,142.88,151.95,161.03,161.03,83.91,88.45,92.99,92.99,174.63,188.24,197.31,197.31,451.32,SBD,Guatemala
2,Brus Eduardo Sazo Rosales,M,2002-03-16,19,Raw,Juniors,61.9,66,142.88,151.95,154.22,154.22,102.06,106.59,111.13,111.13,183.7,-192.78,-197.31,183.7,449.06,SBD,Escuintla
3,Francisco Alexander López Reynoso,M,2002-03-08,19,Raw,Juniors,65.5,66,133.81,142.88,149.69,149.69,92.99,99.79,104.33,104.33,179.17,185.97,-188.24,185.97,439.98,SBD,Quiche
4,Selvin Humberto Tello Cu,M,1998-07-03,22,Raw,Juniors,65.5,66,142.88,-165.56,-170.1,142.88,83.91,88.45,92.99,92.99,174.63,,,174.63,410.5,SBD,Alta Verapaz
5,Robert Jarny Santiago Rivas,M,1998-03-28,23,Raw,Juniors,62.7,66,133.81,138.35,-142.88,138.35,74.84,83.91,88.45,88.45,142.88,-151.95,-156.49,142.88,369.68,SBD,Chimaltenango
6,Bryan Ramiro Escobedo,M,2001-09-03,19,Raw,Juniors,65.8,66,111.13,115.67,120.2,120.2,70.31,79.38,83.91,83.91,124.74,133.81,142.88,142.88,347,SBD,Huehuetenango
7,Anderson Gregorio Fuentes Orozco,M,2002-05-17,19,Raw,Juniors,65.4,66,102.06,113.4,-124.74,113.4,-68.04,72.57,-77.11,72.57,124.74,-136.08,-142.88,124.74,310.71,SBD,San Marcos
DQ,Luis Estuardo Lima Perez,M,2000-09-15,20,Raw,Juniors,63.8,66,-165.56,,,,88.45,92.99,-97.52,92.99,174.63,188.24,195.04,195.04,,SBD,Jalapa
1,Jose Maria Juarez Ponce,M,2002-08-19,18,Raw,Juniors,73.2,74,-165.56,174.63,-183.7,174.63,102.06,106.59,111.13,111.13,174.63,183.7,,183.7,469.47,SBD,Sacatepequez
2,Marlon Gerardo Cu de Paz,M,2002-10-22,18,Raw,Juniors,69.1,74,151.95,156.49,-170.1,156.49,106.59,111.13,,111.13,183.7,-199.58,,183.7,451.32,SBD,Alta Verapaz
3,Guillermo Javier Paredes Dubon,M,2001-04-07,20,Raw,Juniors,72.2,74,133.81,142.88,145.15,145.15,92.99,97.52,99.79,99.79,192.78,206.38,,206.38,451.32,SBD,Guatemala
4,Jeison Alejandro Gomez Morataya,M,2001-06-07,19,Raw,Juniors,70.7,74,165.56,170.1,,170.1,92.99,102.06,-108.86,102.06,165.56,174.63,,174.63,446.79,SBD,Jalapa
5,Manuel Josue Velasquez Morales,M,2001-11-12,19,Raw,Juniors,70,74,102.06,113.4,-120.2,113.4,83.91,-88.45,-92.99,83.91,142.88,-151.95,-158.76,142.88,340.19,SBD,San Marcos
1,Francisco Javier Cantoral Caballeros,M,2001-02-26,20,Raw,Juniors,76.8,83,156.49,170.1,174.63,174.63,106.59,111.13,120.2,120.2,224.53,229.06,233.6,233.6,528.44,SBD,Guatemala
2,Ermes Estuardo Muñoz Muñoz,M,1998-04-03,23,Raw,Juniors,81.9,83,165.56,-179.17,183.7,183.7,115.67,124.74,127.01,127.01,183.7,206.38,210.92,210.92,521.63,SBD,Chimaltenango
3,Edwin Fernando Daniel Castañeda Orozco,M,2002-07-09,18,Raw,Juniors,78.8,83,113.4,124.74,-136.08,124.74,61.23,70.31,-83.91,70.31,142.88,-165.56,-174.63,142.88,337.93,SBD,San Marcos
1,Diego Estuardo Servellon Guerrero,M,2001-08-04,19,Raw,Juniors,87.1,93,165.56,174.63,-183.7,174.63,111.13,120.2,124.74,124.74,195.04,206.38,,206.38,505.76,SBD,Sacatepequez
2,Rosvin Gabriel de Leon Miranda,M,2001-09-29,19,Raw,Juniors,85.6,93,142.88,151.95,158.76,158.76,83.91,92.99,102.06,102.06,142.88,183.7,206.38,206.38,467.2,SBD,San Marcos
3,Duglas Eduardo Padilla Castillo,M,2001-03-31,20,Raw,Juniors,83.1,93,124.74,-133.81,,124.74,74.84,79.38,,79.38,151.95,161.03,,161.03,365.14,SBD,Chimaltenango
4,Jesua Didier Angel Lopez,M,2002-11-16,18,Raw,Juniors,88.41,93,-115.67,129.27,133.81,133.81,52.16,56.7,63.5,63.5,124.74,129.27,133.81,133.81,331.12,SBD,Escuintla
1,Anibal Fredele Cabrera Monroy,M,1998-08-22,22,Raw,Juniors,96.4,105,151.95,167.83,174.63,174.63,106.59,-117.93,120.2,120.2,183.7,-206.38,,183.7,478.54,SBD,Alta Verapaz
2,Gerson Manolo Enrique Estrada Salazar,M,1999-09-17,21,Raw,Juniors,104.5,105,165.56,174.63,,174.63,83.91,92.99,-97.52,92.99,165.56,174.63,,174.63,442.25,SBD,Jalapa
DQ,Robin Lizandro Geronimo Marquez,M,1999-10-22,21,Raw,Juniors,98.9,105,-142.88,-151.95,-156.49,,-92.99,-102.06,-111.13,,-174.63,-183.7,,,,SBD,Sacatepequez
1,Raúl Adonai Padilla Castillo,M,2002-07-22,18,Raw,Juniors,119.8,120,124.74,133.81,142.88,142.88,61.23,70.31,,70.31,151.95,165.56,-170.1,165.56,378.75,SBD,Chimaltenango
1,Antonio Cornelio Cortez Taquiej,M,2005-07-01,15,Raw,Sub-Juniors,52.62,53,74.84,83.91,88.45,88.45,52.16,54.43,56.7,56.7,102.06,111.13,120.2,120.2,265.35,SBD,Quiche
2,Jose Daniel Saquic Ovalle,M,2005-03-01,16,Raw,Sub-Juniors,52.4,53,61.23,70.31,79.38,79.38,29.48,34.02,-43.09,34.02,70.31,102.06,111.13,111.13,224.53,SBD,San Marcos
3,Byron Cesar Omar Tziboy Batz,M,2003-10-19,17,Raw,Sub-Juniors,48.7,53,65.77,70.31,79.38,79.38,43.09,47.63,,47.63,83.91,88.45,,88.45,215.46,SBD,Alta Verapaz
4,Bequer Jacob Garcia Navichoc,M,2005-06-22,15,Raw,Sub-Juniors,45.4,53,52.16,61.23,,61.23,45.36,47.63,,47.63,61.23,70.31,83.91,83.91,192.78,SBD,Solola
5,José Gabriel Chacón Estrada,M,2003-07-10,17,Raw,Sub-Juniors,47.8,53,56.7,61.23,,61.23,29.48,34.02,38.56,38.56,74.84,83.91,88.45,88.45,188.24,SBD,Chimaltenango
1,Justin Zacarias Velazquez Lopez,M,2005-03-04,16,Raw,Sub-Juniors,57,59,102.06,-104.33,106.59,106.59,63.5,68.04,70.31,70.31,106.59,111.13,115.67,115.67,292.57,SBD,Guatemala
1,Andersson Alfredo Lima Perez,M,2005-09-04,15,Raw,Sub-Juniors,60,66,113.4,,,113.4,54.43,,,54.43,124.74,133.81,136.08,136.08,303.91,SBD,Jalapa
2,Manuel Cruz Cruz,M,2006-09-26,14,Raw,Sub-Juniors,64.9,66,92.99,102.06,,102.06,45.36,52.16,,52.16,102.06,-124.74,,102.06,256.28,SBD,Solola
3,José Dario Juan Diego,M,2003-12-16,17,Raw,Sub-Juniors,63.3,66,83.91,88.45,,88.45,52.16,,,52.16,102.06,106.59,,106.59,247.21,SBD,Huehuetenango
1,Carlos Enrique Chub Che,M,2003-04-06,18,Raw,Sub-Juniors,73.7,74,115.67,124.74,129.27,129.27,70.31,74.84,,74.84,165.56,174.63,-179.17,174.63,378.75,SBD,Alta Verapaz
2,Jose Efrain Gonzalez Lopez,M,2003-01-31,18,Raw,Sub-Juniors,70.7,74,124.74,136.08,-142.88,136.08,61.23,70.31,,70.31,136.08,142.88,,142.88,349.27,SBD,Solola
3,Augusto Rene Garzona Lara,M,2004-07-30,16,Raw,Sub-Juniors,70.9,74,-124.74,129.27,133.81,133.81,61.23,70.31,-79.38,70.31,133.81,142.88,-149.69,142.88,347,SBD,Escuintla
4,Cristian Jose Villatoro Cardona,M,2006-01-07,15,Raw,Sub-Juniors,68.2,74,52.16,56.7,61.23,61.23,34.02,38.56,,38.56,61.23,70.31,79.38,79.38,179.17,SBD,Huehuetenango
1,Wilder José López Ventura,M,2003-08-28,17,Raw,Sub-Juniors,80.3,83,192.78,201.85,-206.38,201.85,92.99,102.06,,102.06,206.38,-210.92,-215.46,206.38,510.29,SBD,Chimaltenango
2,José Luis Pérez Rodríguez,M,2003-03-01,18,Raw,Sub-Juniors,80.1,83,174.63,,,174.63,92.99,102.06,,102.06,183.7,192.78,,192.78,469.47,SBD,Jalapa
3,Job Andres Velasco Ruano,M,2004-08-31,16,Raw,Sub-Juniors,81,83,83.91,88.45,106.59,106.59,52.16,56.7,58.97,58.97,102.06,115.67,-124.74,115.67,281.23,SBD,Escuintla
4,Juan Sebastian Morales Estrada,M,2004-10-11,16,Raw,Sub-Juniors,79,83,61.23,70.31,83.91,83.91,43.09,47.63,-52.16,47.63,65.77,83.91,102.06,102.06,233.6,SBD,Sacatepequez
1,Eduardo Javier Noches Trejo,M,2004-04-05,17,Raw,Sub-Juniors,92.7,93,124.74,133.81,136.08,136.08,79.38,83.91,,83.91,165.56,170.1,174.63,174.63,394.63,SBD,Guatemala
2,Jonathan Omar Chub Che,M,,17,Raw,Sub-Juniors,86.4,93,124.74,136.08,,136.08,52.16,83.91,,83.91,111.13,120.2,124.74,124.74,344.73,SBD,
3,Jensen Isaias Perez Gamboa,M,2005-04-16,16,Raw,Sub-Juniors,93,93,61.23,83.91,90.72,90.72,45.36,52.16,61.23,61.23,102.06,117.93,,117.93,269.89,SBD,San Marcos
4,Aminadab Carlos Rafael Garcia Guzman,M,2004-04-26,17,Raw,Sub-Juniors,83.51,93,79.38,83.91,88.45,88.45,43.09,52.16,-61.23,52.16,106.59,111.13,113.4,113.4,254.01,SBD,Chimaltenango
1,Ian Said D'Alessandro Monterroso Monterroso,M,2004-07-28,16,Raw,Sub-Juniors,100.25,105,151.95,156.49,158.76,158.76,79.38,83.91,88.45,88.45,147.42,151.95,158.76,158.76,405.97,SBD,Guatemala
