Division,WeightClassKg,Place,Name,Team,BodyweightKg,Best3SquatKg,Best3BenchKg,Best3DeadliftKg,TotalKg,Equipment,Event,Sex
Boys,51.71,1,Arnold Pena,Benavides,51.62,154.22,79.38,154.22,387.82,Single-ply,SBD,M
Boys,51.71,2,Cole Terry,Skidmore-Tynan,50.53,142.88,83.91,149.69,376.48,Single-ply,SBD,M
Boys,51.71,3,Trevor Carmona,Alice,51.17,127.01,58.97,138.35,324.32,Single-ply,SBD,M
Boys,51.71,4,Isaac Martinez,Sinton,51.35,115.67,65.77,142.88,324.32,Single-ply,SBD,M
Boys,51.71,5,Javier Cantu,San Diego,51.53,104.33,56.7,142.88,303.91,Single-ply,SBD,M
Boys,51.71,6,Victor Vasquez,San Diego,48.72,99.79,58.97,127.01,285.76,Single-ply,SBD,M
Boys,51.71,7,Miguel Gonzalez,Alice,41.46,95.25,36.29,102.06,233.6,Single-ply,SBD,M
Boys,51.71,DQ,Cody Juarez,Alice,51.44,,,,,Single-ply,SBD,M
Boys,55.79,1,Brandon Canales,Benavides,55.25,147.42,83.91,172.37,403.7,Single-ply,SBD,M
Boys,55.79,2,Rj Garcia,Agua Dulce,53.25,158.76,86.18,145.15,390.09,Single-ply,SBD,M
Boys,55.79,3,Austin Castillo,Sinton,55.43,131.54,86.18,170.1,387.82,Single-ply,SBD,M
Boys,55.79,4,Niko Munoz,Falfurrias,55.25,131.54,88.45,149.69,369.68,Single-ply,SBD,M
Boys,55.79,5,Aiden Chavez,Agua Dulce,55.47,127.01,56.7,147.42,331.12,Single-ply,SBD,M
Boys,55.79,6,Jacob Martinez,Hebbronville,55.16,99.79,72.57,129.27,301.64,Single-ply,SBD,M
Boys,55.79,DQ,Lucas Lara,Mathis,54.43,129.27,,,,Single-ply,SBD,M
Boys,59.87,1,Anthony Perez,San Diego,59.42,199.58,122.47,204.12,526.17,Single-ply,SBD,M
Boys,59.87,2,Ryan Saenz,Hebbronville,59.87,181.44,83.91,181.44,446.79,Single-ply,SBD,M
Boys,59.87,3,Miguel Ramirez,Agua Dulce,56.43,158.76,77.11,154.22,390.09,Single-ply,SBD,M
Boys,59.87,4,Tristen Perez,Benavides,57.97,142.88,68.04,147.42,358.34,Single-ply,SBD,M
Boys,59.87,5,Tony De La Rosa,Santa Gertrudis Academy,58.97,106.59,72.57,151.95,331.12,Single-ply,SBD,M
Boys,67.13,1,Ramiro Gonzalez,Falfurrias,65.95,197.31,115.67,210.92,523.9,Single-ply,SBD,M
Boys,67.13,2,Gabriel Quinones,Gregory-Portland,64.5,179.17,97.52,176.9,453.59,Single-ply,SBD,M
Boys,67.13,3,Adrian Fuentes,George West,65.77,151.95,104.33,185.97,442.25,Single-ply,SBD,M
Boys,67.13,4,Alejandro Ramirez,Falfurrias,61.14,154.22,92.99,183.7,430.91,Single-ply,SBD,M
Boys,67.13,5,Estaban Olvera,Gregory-Portland,61.51,163.29,86.18,172.37,421.84,Single-ply,SBD,M
Boys,67.13,6,Joe Sauceda,Gregory-Portland,66.32,167.83,88.45,136.08,392.36,Single-ply,SBD,M
Boys,67.13,7,Ryan Villareal,Santa Gertrudis Academy,66.86,136.08,90.72,158.76,385.55,Single-ply,SBD,M
Boys,67.13,8,Damion Diaz,Hebbronville,66.13,142.88,72.57,161.03,376.48,Single-ply,SBD,M
Boys,67.13,9,Aaron Champion,Mathis,65.5,136.08,86.18,147.42,369.68,Single-ply,SBD,M
Boys,67.13,10,James Ramirez,Mathis,62.87,136.08,81.65,147.42,365.14,Single-ply,SBD,M
Boys,67.13,11,Gabriel Guajardo,Skidmore-Tynan,66.22,142.88,74.84,142.88,360.61,Single-ply,SBD,M
Boys,67.13,12,Izaiah Garcia,Skidmore-Tynan,62.14,122.47,74.84,142.88,340.19,Single-ply,SBD,M
Boys,67.13,DQ,Trevor McClendon,Three Rivers,66.32,102.06,,,,Single-ply,SBD,M
Boys,67.13,DQ,Damien Campos,Bishop,63.87,136.08,,,,Single-ply,SBD,M
Boys,74.84,1,Alex Gonzales #2,Alice,73.12,256.28,117.93,231.33,605.55,Single-ply,SBD,M
Boys,74.84,2,Dennis Guajardo,Benavides,72.57,190.51,106.59,170.1,467.2,Single-ply,SBD,M
Boys,74.84,3,Seth Mesa,Santa Gertrudis Academy,70.13,165.56,111.13,183.7,460.4,Single-ply,SBD,M
Boys,74.84,4,Dylan Sharp,Sinton,69.04,149.69,113.4,188.24,451.32,Single-ply,SBD,M
Boys,74.84,5,Gustavo Gallardo,Mathis,73.57,174.63,97.52,167.83,439.98,Single-ply,SBD,M
Boys,74.84,6,Ethan Almendarez,Three Rivers,74.84,172.37,81.65,181.44,435.45,Single-ply,SBD,M
Boys,74.84,7,Enrique Davila,Mathis,74.84,158.76,97.52,163.29,419.57,Single-ply,SBD,M
Boys,74.84,8,John Carrillo,Three Rivers,72.85,158.76,74.84,181.44,415.04,Single-ply,SBD,M
Boys,74.84,9,Jason Cadena,Three Rivers,70.4,154.22,90.72,165.56,410.5,Single-ply,SBD,M
Boys,74.84,10,Raiden Windham,Gregory-Portland,67.22,147.42,79.38,163.29,390.09,Single-ply,SBD,M
Boys,74.84,11,Patrick Bray,Gregory-Portland,72.12,149.69,74.84,156.49,381.02,Single-ply,SBD,M
Boys,74.84,12,Jacob Reyes,George West,67.68,147.42,83.91,140.61,371.95,Single-ply,SBD,M
Boys,74.84,13,Jerry Edlin,George West,68.22,140.61,70.31,145.15,356.07,Single-ply,SBD,M
Boys,74.84,14,Rey Perales,Benavides,74.84,133.81,72.57,136.08,342.46,Single-ply,SBD,M
Boys,74.84,15,Cale Kruger,Gregory-Portland,68.31,113.4,74.84,136.08,324.32,Single-ply,SBD,M
Boys,74.84,16,Ryan Mixon,Bishop,72.94,102.06,63.5,136.08,301.64,Single-ply,SBD,M
Boys,74.84,DQ,Isidro Salinas,Mathis,72.67,147.42,102.06,,,Single-ply,SBD,M
Boys,74.84,DQ,Ilias Rodriguez,Three Rivers,73.39,190.51,99.79,,,Single-ply,SBD,M
Boys,82.1,1,Javier Rodriguez,San Diego,75.39,251.74,138.35,204.12,594.21,Single-ply,SBD,M
Boys,82.1,2,Isaac Bueno,Alice,80.83,226.8,136.08,213.19,576.06,Single-ply,SBD,M
Boys,82.1,3,Kyle Zipperian,Gregory-Portland,79.38,219.99,136.08,217.72,573.79,Single-ply,SBD,M
Boys,82.1,4,Connor Bowers,Bishop,76.84,204.12,131.54,217.72,553.38,Single-ply,SBD,M
Boys,82.1,5,Alan Medrano,Bishop,81.28,201.85,120.2,226.8,548.85,Single-ply,SBD,M
Boys,82.1,6,Brit Bowers,Bishop,79.29,172.37,124.74,215.46,512.56,Single-ply,SBD,M
Boys,82.1,7,Bo Surber,Agua Dulce,79.83,183.7,115.67,183.7,483.08,Single-ply,SBD,M
Boys,82.1,8,Jacob Prather,Three Rivers,80.29,188.24,106.59,188.24,483.08,Single-ply,SBD,M
Boys,82.1,9,Matthew Mireles,Gregory-Portland,75.93,163.29,79.38,140.61,383.29,Single-ply,SBD,M
Boys,82.1,10,Jordan Longoria,Bishop,77.56,136.08,83.91,163.29,383.29,Single-ply,SBD,M
Boys,82.1,11,Charles Johnson,Three Rivers,79.83,131.54,63.5,163.29,358.34,Single-ply,SBD,M
Boys,82.1,12,Chris Valdez,Gregory-Portland,78.65,102.06,63.5,136.08,301.64,Single-ply,SBD,M
Boys,89.81,1,Gilbert Mendez,Bishop,82.74,208.65,122.47,226.8,557.92,Single-ply,SBD,M
Boys,89.81,2,Ithel Carillo,Hebbronville,82.46,195.04,136.08,206.38,537.51,Single-ply,SBD,M
Boys,89.81,3,Tyler Gassaway,Gregory-Portland,83.55,188.24,124.74,199.58,512.56,Single-ply,SBD,M
Boys,89.81,4,Chris Swartz,Agua Dulce,85.82,172.37,117.93,190.51,480.81,Single-ply,SBD,M
Boys,89.81,5,Gabriel Hernandez,Bishop,84.01,149.69,106.59,176.9,433.18,Single-ply,SBD,M
Boys,89.81,6,Brady Raines,Gregory-Portland,86.82,163.29,99.79,167.83,430.91,Single-ply,SBD,M
Boys,89.81,7,Riley Richards,Gregory-Portland,88.99,147.42,79.38,158.76,385.55,Single-ply,SBD,M
Boys,89.81,8,Heron Tamez,Falfurrias,84.37,138.35,83.91,149.69,371.95,Single-ply,SBD,M
Boys,89.81,9,Mark Gentry,Three Rivers,87.72,140.61,81.65,140.61,362.87,Single-ply,SBD,M
Boys,89.81,10,Sabastian Mosely,Santa Gertrudis Academy,84.91,99.79,77.11,149.69,326.59,Single-ply,SBD,M
Boys,89.81,11,Vicente Zavala,Santa Gertrudis Academy,83.91,104.33,70.31,136.08,310.71,Single-ply,SBD,M
Boys,89.81,DQ,Richard Salazar #1,George West,87.54,,,,,Single-ply,SBD,M
Boys,89.81,DQ,Ethan Gonzalez #2,San Diego,88.81,,,,,Single-ply,SBD,M
Boys,89.81,DQ,Elijah Holifield,Skidmore-Tynan,83.82,,,,,Single-ply,SBD,M
Boys,89.81,DQ,Toby Medina,Mathis,88.9,183.7,,,,Single-ply,SBD,M
Boys,99.79,1,Karl Gibson II,Mathis,93.98,265.35,154.22,260.82,680.39,Single-ply,SBD,M
Boys,99.79,2,George Villela,Gregory-Portland,98.52,258.55,158.76,249.48,666.78,Single-ply,SBD,M
Boys,99.79,3,Ray Saenz,Bishop,91.35,244.94,131.54,238.14,614.62,Single-ply,SBD,M
Boys,99.79,4,Elias Cantu,Hebbronville,95.98,208.65,140.61,222.26,571.53,Single-ply,SBD,M
Boys,99.79,5,Ethan Bernal,George West,95.35,204.12,113.4,206.38,523.9,Single-ply,SBD,M
Boys,99.79,6,Ramon Vasquez,Bishop,99.79,188.24,83.91,215.46,487.61,Single-ply,SBD,M
Boys,99.79,7,Fred De La Rosa,Sinton,95.44,176.9,122.47,181.44,480.81,Single-ply,SBD,M
Boys,99.79,8,Ryan Rasburry,Mathis,93.44,179.17,95.25,136.08,410.5,Single-ply,SBD,M
Boys,99.79,9,Jaden Rowe,Gregory-Portland,92.71,156.49,81.65,149.69,387.82,Single-ply,SBD,M
Boys,99.79,10,Aaron Casarez,Three Rivers,90.36,140.61,70.31,142.88,353.8,Single-ply,SBD,M
Boys,99.79,11,Alfanso Montiel,Alice,96.25,122.47,77.11,149.69,349.27,Single-ply,SBD,M
Boys,99.79,12,Adrian Salinas,Three Rivers,90.72,131.54,72.57,142.88,347,Single-ply,SBD,M
Boys,99.79,13,Gage Gomez,Gregory-Portland,91.53,113.4,70.31,145.15,328.85,Single-ply,SBD,M
Boys,99.79,14,Dakota King,Three Rivers,97.25,106.59,68.04,145.15,319.78,Single-ply,SBD,M
Boys,99.79,DQ,Thomas Puentes,Skidmore-Tynan,99.7,,,,,Single-ply,SBD,M
Boys,99.79,DQ,Bailey Trevino,George West,96.52,278.96,,,,Single-ply,SBD,M
Boys,99.79,DQ,Marcus Hinojosa,Skidmore-Tynan,95.62,195.04,90.72,,,Single-ply,SBD,M
Boys,99.79,DQ,Victor Vera,Sinton,94.35,158.76,127.01,,,Single-ply,SBD,M
Boys,109.77,1,Michael Salaiz,San Diego,106.68,278.96,149.69,231.33,659.98,Single-ply,SBD,M
Boys,109.77,2,Daniel Vela,Falfurrias,109.41,258.55,136.08,249.48,644.1,Single-ply,SBD,M
Boys,109.77,3,Osbaldo Gonzales,Alice,108.68,226.8,127.01,238.14,591.94,Single-ply,SBD,M
Boys,109.77,4,Austin Kennemer,Agua Dulce,103.24,235.87,138.35,213.19,587.4,Single-ply,SBD,M
Boys,109.77,5,Joey Garza,Falfurrias,107.5,235.87,111.13,215.46,562.45,Single-ply,SBD,M
Boys,109.77,6,Sebastian Opal,Gregory-Portland,103.96,195.04,122.47,190.51,508.02,Single-ply,SBD,M
Boys,124.74,1,Jaime Rosas,Falfurrias,115.48,281.23,149.69,244.94,675.85,Single-ply,SBD,M
Boys,124.74,2,Abel Tunchez,San Diego,121.74,272.16,129.27,206.38,607.81,Single-ply,SBD,M
Boys,124.74,3,Scott Gomez,Mathis,122.92,124.74,68.04,147.42,340.19,Single-ply,SBD,M
Boys,124.74+,1,George Hughes,San Diego,128.82,240.4,136.08,204.12,580.6,Single-ply,SBD,M
Boys,124.74+,2,Jonathan Rodriguez,Agua Dulce,129.27,204.12,129.27,174.63,508.02,Single-ply,SBD,M
Boys,124.74+,3,Chris Lytle,Benavides,135.9,199.58,102.06,206.38,508.02,Single-ply,SBD,M
Boys,124.74+,4,Aaron Flores #2,Santa Gertrudis Academy,136.62,185.97,72.57,158.76,417.3,Single-ply,SBD,M
Boys,124.74+,DQ,Jonathan Garza,San Diego,128.82,,,,,Single-ply,SBD,M
Boys,,NS,Victor Soliz,San Diego,,,,,,Single-ply,SBD,M
Boys,,NS,Chris Trevino,San Diego,,,,,,Single-ply,SBD,M
Boys,,NS,Jose Marquez,Hebbronville,,,,,,Single-ply,SBD,M
Boys,,NS,Pete Dominguez,Hebbronville,,,,,,Single-ply,SBD,M
Boys,,NS,Carlos Huerta #1,Hebbronville,,,,,,Single-ply,SBD,M
Boys,,NS,Brandon Carballo,Hebbronville,,,,,,Single-ply,SBD,M
Boys,,NS,Raul Puig,Hebbronville,,,,,,Single-ply,SBD,M
Boys,,NS,Nathaniel McRae,Hebbronville,,,,,,Single-ply,SBD,M
Boys,,NS,Jakob Encinia,Sinton,,,,,,Single-ply,SBD,M
Boys,,NS,Francisco Gonzales,Sinton,,,,,,Single-ply,SBD,M
Boys,,NS,Dustin Ramos,Sinton,,,,,,Single-ply,SBD,M
Boys,,NS,Caleb Wilson,Skidmore-Tynan,,,,,,Single-ply,SBD,M
Boys,,NS,Samuel Gutierrez,Skidmore-Tynan,,,,,,Single-ply,SBD,M
Boys,,NS,Tyler Harris,Skidmore-Tynan,,,,,,Single-ply,SBD,M
Boys,,NS,Logan Harris,Skidmore-Tynan,,,,,,Single-ply,SBD,M
Boys,,NS,Eric Rocha,Santa Gertrudis Academy,,,,,,Single-ply,SBD,M
Boys,,NS,Ethan Juarez,Santa Gertrudis Academy,,,,,,Single-ply,SBD,M
Boys,,NS,Goliath Garcia,Agua Dulce,,,,,,Single-ply,SBD,M
Boys,,NS,Miguel Gonzalez,Agua Dulce,,,,,,Single-ply,SBD,M
Boys,,NS,Jacob Salinas,Agua Dulce,,,,,,Single-ply,SBD,M
Boys,,NS,Nico Perez,Benavides,,,,,,Single-ply,SBD,M
Boys,,NS,Andy Saenz,Benavides,,,,,,Single-ply,SBD,M
Boys,,NS,Everet Power,George West,,,,,,Single-ply,SBD,M
Boys,,NS,Arturo Reyna,Bishop,,,,,,Single-ply,SBD,M
Boys,,NS,Jose Maldonado,Falfurrias,,,,,,Single-ply,SBD,M
Boys,,NS,Joshua Olivarez,Falfurrias,,,,,,Single-ply,SBD,M
Boys,,NS,Joel Salinas,Falfurrias,,,,,,Single-ply,SBD,M
Boys,,NS,Brian Garza,Falfurrias,,,,,,Single-ply,SBD,M
Boys,,NS,AJ Moreno,Alice,,,,,,Single-ply,SBD,M
Boys,,NS,Marcus Garza,Alice,,,,,,Single-ply,SBD,M
Boys,,NS,Matthew Olivarri,Alice,,,,,,Single-ply,SBD,M
Boys,,NS,Ethan Vasquez,Alice,,,,,,Single-ply,SBD,M
