Name,State,Sex,Division,Equipment,Age,WeightClassKg,BodyweightKg,Best3SquatKg,Best3BenchKg,Best3DeadliftKg,TotalKg,Event,Place
Trevor Gallant,ME,M,M_JR_APF,Raw,20,75,73.03,,110,,110,B,1
Luis Rocha,VA,M,M_OR_APF,Raw,29,100,91.17,,167.5,,167.5,B,1
Connor Lajoie,ME,M,M_TEM_3_APF,Multi-ply,19,90,88,,,,,B,DQ
Gabe Johnson,ME,M,M_JEM_APF,Multi-ply,23,90,89.36,262.5,155,215,632.5,SBD,1
Kyle Spencer,ME,M,M_JCR_APF,Wraps,21,67.5,65.32,220,145,197.5,562.5,SBD,1
Julian Despres,ME,M,M_JCR_APF,Wraps,23,82.5,81.19,220,147.5,260,627.5,SBD,1
Justin Jasper,ME,M,M_JCR_APF,Wraps,23,82.5,79.38,195,115,195,505,SBD,2
Theo Harris,WA,M,M_JCR_APF,Wraps,23,125,122.47,165,115,227.5,507.5,SBD,1
Jakob Bouchard,ME,M,M_JCR_APF,Wraps,20,110,104.33,150,75,200,425,SBD,1
Phillip Long,MA,M,M_MCR_2_APF,Wraps,47,82.5,80.74,197.5,145,237.5,580,SBD,1
Tim Lane,ME,M,M_MEM_4_APF,Multi-ply,59,125,122.02,322.5,170,260,752.5,SBD,1
Pete Bennett,NH,M,M_MEM_9_APF,Multi-ply,80,90,88.45,137.5,92.5,170,400,SBD,1
Bert Dyer,ME,M,M_MCR_5_APF,Wraps,61,90,84.82,160,105,175,440,SBD,1
Andy Barris,ME,M,M_MCR_3_APF,Wraps,50,82.5,79.38,182.5,110,192.5,485,SBD,1
Peter Smith,ME,M,M_MCR_4_APF,Wraps,57,75,74.39,122.5,90,152.5,365,SBD,1
Frank Ventriglia Jr,MA,M,M_MEM_1_APF,Multi-ply,43,110,101.6,,110,,110,B,1
Anthony Petrino,ME,M,M_MEM_4_APF,Multi-ply,59,140,134.26,,307.5,,307.5,B,1
Frank Ventriglia Sr,MA,M,M_MEM_6_APF,Multi-ply,68,125,115.21,,82.5,,82.5,B,1
Matthew Tardif,NH,M,M_OEM_APF,Multi-ply,28,140,138.35,365,275,265,905,SBD,1
Uthdoung Prose,MA,M,M_OCR_APF,Wraps,31,75,73.94,227.5,162.5,237.5,627.5,SBD,1
Noah Doe,ME,M,M_OCR_APF,Wraps,28,75,74.84,182.5,97.5,205,485,SBD,2
Julian Despres,ME,M,M_OCR_APF,Wraps,23,82.5,81.19,220,147.5,260,627.5,SBD,1
Phillip Long,MA,M,M_OCR_APF,Wraps,47,82.5,80.74,197.5,145,237.5,580,SBD,2
Dustin Pepin,ME,M,M_OCR_APF,Wraps,29,100,98.43,300,190,307.5,797.5,SBD,1
Ryan Whelan,ME,M,M_OCR_APF,Wraps,26,100,96.16,215,152.5,245,612.5,SBD,2
Michael Johnson,ME,M,M_OCR_APF,Wraps,26,100,93.89,212.5,130,227.5,570,SBD,4
Adam Sokiloski,ME,M,M_OCR_APF,Wraps,34,100,97.07,205,132.5,235,572.5,SBD,3
Drew Athearn,ME,M,M_OCR_APF,Wraps,33,100,97.52,187.5,137.5,225,550,SBD,5
Shawn Athearn,ME,M,M_OCR_APF,Wraps,33,100,90.26,182.5,115,207.5,505,SBD,6
Dorn McMahon,ME,M,M_OCR_APF,Wraps,37,100,90.72,150,90,150,390,SBD,7
Joseph Cameron,MA,M,M_OCR_APF,Wraps,32,110,100.24,280,192.5,295,767.5,SBD,2
Travis Dyer,ME,M,M_OCR_APF,Wraps,26,110,108.41,287.5,190,302.5,780,SBD,1
Matthew Russell,ME,M,M_OCR_APF,Wraps,24,110,105.69,257.5,160,280,697.5,SBD,3
Nick Breen,MA,M,M_OCR_APF,Wraps,27,110,109.32,230,170,285,685,SBD,4
Anthony Mureno,ME,M,M_OCR_APF,Wraps,35,125,120.2,342.5,210,320,872.5,SBD,1
Andre Aureliano,MA,M,M_OCR_APF,Wraps,30,125,121.56,275,195,327.5,797.5,SBD,2
Chandan McCall,ME,M,M_OCR_APF,Wraps,19,125,122.47,217.5,157.5,192.5,567.5,SBD,3
Jared Schnell,PA,M,M_TCR_3_APF,Wraps,19,82.5,81.19,197.5,122.5,230,550,SBD,1
Chandan McCall,ME,M,M_TCR_3_APF,Wraps,19,125,122.47,217.5,157.5,192.5,567.5,SBD,1
Taite Mckay,ME,M,M_TCR_3_APF,Wraps,18,90,87.54,165,105,220,490,SBD,1
Allen Schroeder,CT,M,M_TCR_3_APF,Wraps,19,82.5,80.29,177.5,100,155,432.5,SBD,2
Sacharis Tirado,ME,F,F_JCR_APF,Wraps,22,56,54.88,110,52.5,135,297.5,SBD,1
Jackie Welch,ME,F,F_JCR_APF,Wraps,22,67.5,62.6,97.5,60,132.5,290,SBD,1
Erica Guay,ME,F,F_MCR_1_APF,Wraps,41,60,57.15,130,60,127.5,317.5,SBD,1
Penny Parker,ME,F,F_MCR_2_APF,Wraps,46,90,89.81,132.5,85,180,397.5,SBD,1
Sara Johnson,ME,F,F_MCR_1_APF,Wraps,40,90,82.55,90,52.5,142.5,285,SBD,2
Bethany Bowers,ME,F,F_MCR_1_APF,Wraps,43,90,89.81,80,55,92.5,227.5,SBD,3
Heather Nailor,ME,F,F_MCR_1_APF,Wraps,42,82.5,79.38,82.5,50,75,207.5,SBD,1
Joanne Petkus,ME,F,F_MCR_4_APF,Wraps,59,75,70.76,57.5,50,102.5,210,SBD,1
Lauren Dyer,ME,F,F_OCR_APF,Wraps,26,60,59.87,147.5,70,175,392.5,SBD,1
Teesha Keating,NH,F,F_OCR_APF,Wraps,38,56,55.79,115,62.5,160,337.5,SBD,1
Caitlin Gusk,ME,F,F_OCR_APF,Wraps,24,60,57.15,110,62.5,115,287.5,SBD,2
Erin Beal,ME,F,F_OCR_APF,Wraps,26,90,87.09,130,72.5,170,372.5,SBD,1
Dana Tripp,ME,F,F_OCR_APF,Wraps,25,75,73.48,107.5,72.5,150,330,SBD,1
Sarah Johnson,NH,F,F_OCR_APF,Wraps,35,90+,156.49,150,82.5,160,392.5,SBD,1
Dakota Duffy #1,MD,F,F_OCR_APF,Wraps,26,90,86.64,115,57.5,120,292.5,SBD,2
Julia Panepinto,ME,F,F_TCR_3_APF,Wraps,19,75,70.76,132.5,67.5,132.5,332.5,SBD,1
Hermione Zhou,ME,F,F_TCR_3_APF,Wraps,19,56,54.32,57.5,47.5,75,180,SBD,1
