Place,Name,State,WeightClassKg,BodyweightKg,Age,Best3SquatKg,Best3BenchKg,Best3DeadliftKg,TotalKg,Sex,Division,Equipment,Event,Bench4Kg
1,Yulika Perez Soza,CA,56,56,23,120,67.5,125,312.5,F,Juniors 20-23,Raw,SBD,
1,Lulu Sheek,CA,60,59.3,21,87.5,50,110,247.5,F,Juniors 20-23,Raw,SBD,
1,Alisha Oseguera,CA,67.5,60.1,23,112.5,60,142.5,315,F,Juniors 20-23,Raw,SBD,
1,Karina Mosqueda,CA,82.5,80.2,22,197.5,97.5,210,505,F,Juniors 20-23,Raw,SBD,
1,Natalie De La Rosa,CA,90,88.9,22,125,60,142.5,327.5,F,Juniors 20-23,Raw,SBD,
1,Jennifer Webber,CA,90+,102.1,23,102.5,47.5,130,280,F,Juniors 20-23,Raw,SBD,
1,Nerissa Soliven,CA,52,50.8,24,102.5,50,110,262.5,F,Open,Raw,SBD,
1,Melissa Demesa,CA,60,59.6,24,115,55,142.5,312.5,F,Open,Raw,SBD,
1,Becka Hoffmann,CA,67.5,67,28,132.5,62.5,137.5,332.5,F,Open,Raw,SBD,
2,Alisha Oseguera,CA,67.5,60.1,23,112.5,60,142.5,315,F,Open,Raw,SBD,
3,Gedda Peko,CO,67.5,65.8,29,100,65,120,285,F,Open,Raw,SBD,
1,Samantha Scardino,CA,75,73.9,26,125,65,162.5,352.5,F,Open,Raw,SBD,
2,Courtney Ferguson,CA,75,73.8,30,107.5,60,132.5,300,F,Open,Raw,SBD,
1,Karina Mosqueda,CA,82.5,80.2,22,197.5,97.5,210,505,F,Open,Raw,SBD,
1,Natalie De La Rosa,CA,90,88.9,22,125,60,142.5,327.5,F,Open,Raw,SBD,
1,Makailuh Morrison,CA,90+,161.2,22,92.5,67.5,165,325,F,Open,Raw,SBD,
2,Jennifer Webber,CA,90+,102.1,23,102.5,47.5,130,280,F,Open,Raw,SBD,
3,Sara Galbraith,CA,90+,102.7,28,80,50,87.5,217.5,F,Open,Raw,SBD,
1,Katie Sinha,CA,90,85.1,41,87.5,55,127.5,270,F,Masters 40-44,Raw,SBD,
1,Joseph Pulica,UT,90,88.3,15,155,117.5,190,462.5,M,Juniors 13-15,Raw,SBD,
1,Habakkuk Lopez,UT,90,85.3,16,155,85,165,405,M,Juniors 16-17,Raw,SBD,
1,Alan Tran,CA,90,85.1,23,190,127.5,220,537.5,M,Juniors 20-23,Raw,SBD,
2,Brandon Tsutsui,CA,90,85.3,22,192.5,115,215,522.5,M,Juniors 20-23,Raw,SBD,
3,Justin Mendoza,CA,90,88.2,22,192.5,120,210,522.5,M,Juniors 20-23,Raw,SBD,
1,Xavier Romero,CA,100,94.2,23,300,152.5,300,752.5,M,Juniors 20-23,Raw,SBD,
2,Benjamin Pierce,CA,100,94,23,205,140,245,590,M,Juniors 20-23,Raw,SBD,
3,Benjamin Diaz,CA,100,90.5,20,147.5,107.5,187.5,442.5,M,Juniors 20-23,Raw,SBD,
1,Issac Griffin,CA,110,109.2,23,300,165,297.5,762.5,M,Juniors 20-23,Raw,SBD,
1,Adan Salazar,CA,125,123.6,20,190,127.5,197.5,515,M,Juniors 20-23,Raw,SBD,
1,Robert Leos,CA,67.5,65,30,142.5,120,190,452.5,M,Open,Raw,SBD,
1,Jesse Fukawa,CA,75,73.2,27,160,102.5,240,502.5,M,Open,Raw,SBD,
2,Berto Quesada,CA,75,74.8,25,162.5,120,210,492.5,M,Open,Raw,SBD,
1,Juan Garcia,CA,82.5,80.4,32,165,152.5,255,572.5,M,Open,Raw,SBD,
2,Scott Miller,NV,82.5,82.1,28,190,137.5,225,552.5,M,Open,Raw,SBD,
3,Ryan Seaver,CA,82.5,81.6,27,200,117.5,232.5,550,M,Open,Raw,SBD,
4,Tyler Creevy,CA,82.5,81.9,27,190,125,232.5,547.5,M,Open,Raw,SBD,
5,Patrick McCormic,CA,82.5,81.7,33,200,112.5,220,532.5,M,Open,Raw,SBD,
6,Marcos Casillas,CA,82.5,80.4,24,180,115,235,530,M,Open,Raw,SBD,
7,Kevin Porter,CA,82.5,80.2,29,165,122.5,220,507.5,M,Open,Raw,SBD,
1,Eric Castro,CA,90,89.6,27,245,160,250,655,M,Open,Raw,SBD,
2,Allen Guevarra,CA,90,85.6,25,220,142.5,277.5,640,M,Open,Raw,SBD,
3,Keith Valeros,CA,90,89.5,21,227.5,122.5,255,605,M,Open,Raw,SBD,
4,Jordan Ferguson,CA,90,89.4,24,207.5,145,242.5,595,M,Open,Raw,SBD,
5,Alan Tran,CA,90,85.1,23,190,127.5,220,537.5,M,Open,Raw,SBD,
6,Fernando Gomez,CA,90,87.6,29,185,112.5,212.5,510,M,Open,Raw,SBD,
1,Xavier Romero,CA,100,94.2,23,300,152.5,300,752.5,M,Open,Raw,SBD,
2,Charles Ilardi,CA,100,92.7,26,225,160,267.5,652.5,M,Open,Raw,SBD,
3,Tyler Adams #1,CA,100,99,28,220,172.5,232.5,625,M,Open,Raw,SBD,
4,Keith Mannies,CA,100,94.2,46,165,150,227.5,542.5,M,Open,Raw,SBD,
1,Issac Griffin,CA,110,109.2,23,300,165,297.5,762.5,M,Open,Raw,SBD,
2,Daniel Martinez #3,CA,110,109.3,28,230,165,270,665,M,Open,Raw,SBD,
3,Eric Olson,MN,110,102.8,23,197.5,140,272.5,610,M,Open,Raw,SBD,
1,Chris Gordert,CA,125,124.7,28,340,217.5,350,907.5,M,Open,Raw,SBD,
2,Joash Peko,CO,125,114.2,27,242.5,162.5,282.5,687.5,M,Open,Raw,SBD,
3,James Oleary,CA,125,124,30,250,175,257.5,682.5,M,Open,Raw,SBD,
4,Dalton Mullinax,CA,125,123.9,26,215,122.5,222.5,560,M,Open,Raw,SBD,
1,Keith Mannies,CA,100,94.2,46,165,150,227.5,542.5,M,Masters 45-49,Raw,SBD,
1,DL Diltz,MN,110,105.6,70,160,120,210,490,M,Masters 70-74,Raw,SBD,
1,Leah Calimlim,CA,82.5,78.7,36,142.5,82.5,147.5,372.5,F,Open,Wraps,SBD,
2,Alejandra Acosta,CA,82.5,82.1,25,127.5,57.5,152.5,337.5,F,Open,Wraps,SBD,
1,Ian Karobkoff,CA,82.5,81.5,21,187.5,120,200,507.5,M,Juniors 20-23,Wraps,SBD,
1,Marco Solis,CA,125,121.5,34,305,177.5,275,757.5,M,Open,Wraps,SBD,
2,Scott Watkins,CA,125,115.2,33,205,152.5,232.5,590,M,Open,Wraps,SBD,
1,Mark Johnson #2,CA,125,115.1,52,150,125,210,485,M,Masters 50-54,Wraps,SBD,
1,Charles Bannerman,CA,110,109.1,29,,172.5,,172.5,M,Open,Raw,B,
1,Scott Watkins,CA,125,115.2,33,,152.5,,152.5,M,Open,Raw,B,
1,Howard Mangan,CA,100,92.7,77,,95,,95,M,Masters 75-79,Raw,B,97.5
1,Alisha Oseguera,CA,67.5,60.1,23,,,142.5,142.5,F,Juniors 20-23,Raw,D,
1,Alisha Oseguera,CA,67.5,60.1,23,,,142.5,142.5,F,Open,Raw,D,
1,Kevin Porter,CA,82.5,80.2,29,,,220,220,M,Open,Raw,D,
1,Charles Bannerman,CA,110,109.1,29,,,252.5,252.5,M,Open,Raw,D,
