Place,Sex,Division,Name,BirthYear,Country,WeightClassKg,Best3SquatKg,Best3BenchKg,Best3DeadliftKg,TotalKg,Squat4Kg,Event,Equipment
1,F,Open,Ginger Lord,,USA,44,110,50,140,300,,SBD,Single-ply
2,F,Open,Ann Brown,,UK,44,85,42.5,130,257.5,,SBD,Single-ply
3,F,Open,Bonny Kelly,,Canada,44,82.5,45,122.5,250,,SBD,Single-ply
4,F,Open,Lena Johansson,,Sweden,44,77.5,35,105,217.5,,SBD,Single-ply
5,F,Open,Maria Regina Ricci,,Brazil,44,55,27.5,77.5,160,,SBD,Single-ply
1,F,Open,Terry Dillard,,USA,48,140,60,147.5,347.5,,SBD,Single-ply
2,F,Open,Joelle Smal,,Belgium,48,117.5,57.5,140,315,,SBD,Single-ply
3,F,Open,Claudette Dionne,,Canada,48,120,65,117.5,302.5,,SBD,Single-ply
4,F,Open,Bernadette Luiten,,Belgium,48,105,57.5,120,282.5,,SBD,Single-ply
5,F,Open,Carole Bennett,,UK,48,92.5,65,117.5,275,,SBD,Single-ply
6,F,Open,Lena Wessman,1960,Sweden,48,110,50,105,265,,SBD,Single-ply
DQ,F,Open,E. Cesar,,Brazil,48,,,,,,SBD,Single-ply
1,F,Open,Sue Jordan,,Australia,52,140,70,155,365,,SBD,Single-ply
2,F,Open,Vicky Steenrod,1949,USA,52,130,75,160,365,,SBD,Single-ply
3,F,Open,Kali Bogias,,Canada,52,135,77.5,150,362.5,,SBD,Single-ply
4,F,Open,Karen Blackman,,Canada,52,115,42.5,145,302.5,,SBD,Single-ply
5,F,Open,Suzanne Smith #3,,UK,52,105,70,120,295,,SBD,Single-ply
6,F,Open,Alice Heikkala,,Finland,52,105,52.5,132.5,290,,SBD,Single-ply
7,F,Open,Helena Backmark,,Sweden,52,110,55,120,285,,SBD,Single-ply
8,F,Open,Grete Gangnæs,,Norway,52,107.5,55,122.5,285,,SBD,Single-ply
9,F,Open,Telle Johansson,,Sweden,52,90,55,135,280,,SBD,Single-ply
10,F,Open,Marie-Claire DeFaria,,France,52,90,55,130,275,,SBD,Single-ply
11,F,Open,Kazumi Imai,,Japan,52,95,45,105,245,,SBD,Single-ply
1,F,Open,Julie Thomas,,USA,56,132.5,87.5,145,365,,SBD,Single-ply
2,F,Open,Kazumi Tajika,,Japan,56,120,65,152.5,337.5,,SBD,Single-ply
3,F,Open,Anna-Maija Yliluoma,,Finland,56,130,67.5,140,337.5,,SBD,Single-ply
4,F,Open,Maria Jorge,,Brazil,56,122.5,67.5,140,330,,SBD,Single-ply
5,F,Open,Beatrice Nilsson,,Sweden,56,122.5,60,130,312.5,,SBD,Single-ply
6,F,Open,Nora Renzetti,,Canada,56,110,62.5,137.5,310,,SBD,Single-ply
7,F,Open,Nicole Vouillot,,France,56,95,60,142.5,297.5,,SBD,Single-ply
8,F,Open,June Beverly,,Canada,56,112.5,62.5,122.5,297.5,,SBD,Single-ply
9,F,Open,Alison Bunn,,Australia,56,105,50,140,295,,SBD,Single-ply
10,F,Open,Deborah Flahavan,,UK,56,105,47.5,125,277.5,,SBD,Single-ply
11,F,Open,Ilona Bösze,,Sweden,56,95,55,125,275,,SBD,Single-ply
12,F,Open,Ginnie Russell,,UK,56,85,47.5,130,262.5,,SBD,Single-ply
1,F,Open,Ruthi Shafer,1957,USA,60,175,82.5,192.5,450,,SBD,Single-ply
2,F,Open,Tina van Duyn-Woodley,,Netherlands,60,135,87.5,170,392.5,,SBD,Single-ply
3,F,Open,Rita Bass,1945,UK,60,150,70,162.5,382.5,,SBD,Single-ply
4,F,Open,Carolyn Gammon,,Canada,60,130,85,125,340,,SBD,Single-ply
5,F,Open,Maria Ferreira,,Brazil,60,140,42.5,147.5,330,,SBD,Single-ply
6,F,Open,Hanna Räty,,Finland,60,110,62.5,142.5,315,,SBD,Single-ply
7,F,Open,Hege Nielsen,,Norway,60,120,50,120,290,,SBD,Single-ply
1,F,Open,Angie Ross,,USA,67.5,180,82.5,172.5,435,,SBD,Single-ply
2,F,Open,Heidi Wittesch,,Australia,67.5,150,82.5,167.5,400,,SBD,Single-ply
3,F,Open,Donna Webb,,UK,67.5,165,67.5,165,397.5,,SBD,Single-ply
4,F,Open,Liv Schönhardt,,Norway,67.5,140,60,150,350,,SBD,Single-ply
5,F,Open,Ann Connolly,,Canada,67.5,125,65,137.5,327.5,,SBD,Single-ply
6,F,Open,Angelika Dusie,,Germany,67.5,110,80,130,320,,SBD,Single-ply
7,F,Open,Aparecida Martinez,,Brazil,67.5,100,47.5,130,277.5,,SBD,Single-ply
8,F,Open,Taimi Kettunen,,Spain,67.5,80,50,100,230,,SBD,Single-ply
1,F,Open,Bev Francis,,Australia,75,187.5,120,190,497.5,,SBD,Single-ply
2,F,Open,Terry Ptomey,1963,USA,75,200,85,182.5,467.5,207.5,SBD,Single-ply
1,F,Open,Judith Oakes,1958,UK,82.5,202.5,105,195,502.5,,SBD,Single-ply
2,F,Open,Mary Barreira,,USA,82.5,175,90,190,455,,SBD,Single-ply
3,F,Open,Tove Eriksen,,Norway,82.5,165,85,170,420,,SBD,Single-ply
4,F,Open,Jackie Jackson,,UK,82.5,155,77.5,162.5,395,,SBD,Single-ply
DQ,F,Open,Wanda Wilson,,USA,82.5,,,,,,SBD,Single-ply
1,F,Open,Rebecca Waibler,,Germany,90,170,105,200,475,,SBD,Single-ply
2,F,Open,Janis Kerr,,UK,90,150,95,170,415,,SBD,Single-ply
DQ,F,Open,Wanda Sander,1962,USA,90,175,,,,,SBD,Single-ply
1,F,Open,Annie McElroy,,USA,90+,210,82.5,210,502.5,,SBD,Single-ply
2,F,Open,Jo-Ann Marshall,,Canada,90+,205,77.5,190,472.5,,SBD,Single-ply
3,F,Open,Ginette Gardner,,Australia,90+,160,60,180,400,,SBD,Single-ply
4,F,Open,Maria Ambrozini,,Brazil,90+,140,45,140,325,,SBD,Single-ply
