Name,WeightClassKg,Division,AgeRange,Sex,Best3SquatKg,Best3BenchKg,Best3DeadliftKg,TotalKg,Event,Equipment,Place
R. Steinsiek,52,Open,,M,112.5,67.5,145,325,SBD,Single-ply,1
M. Trigg,52,Open,,M,97.5,67.5,125,290,SBD,Single-ply,2
T. Braswell,56,Open,,M,125,75,157.5,357.5,SBD,Single-ply,1
Dudley Lyon,56,Open,,M,137.5,82.5,130,350,SBD,Single-ply,2
K. Wall,56,Open,,M,117.5,67.5,147.5,332.5,SBD,Single-ply,3
Richard Poindexter,56,Open,,M,85,72.5,132.5,290,SBD,Single-ply,4
Buddy Haga,56,Open,,M,80,60,115,255,SBD,Single-ply,5
Glen Venator,60,Open,,M,162.5,125,195,482.5,SBD,Single-ply,1
Richard Beck,60,Open,,M,155,100,165,420,SBD,Single-ply,2
T. Boseman,60,Open,,M,145,72.5,170,387.5,SBD,Single-ply,3
Bill Bell,67.5,Open,,M,182.5,137.5,190,510,SBD,Single-ply,1
Doug Holland,67.5,Open,,M,180,115,205,500,SBD,Single-ply,2
J. Greco,67.5,Open,,M,160,120,212.5,492.5,SBD,Single-ply,3
Joe Paul Beasley,67.5,Open,,M,170,102.5,187.5,460,SBD,Single-ply,4
Victor Williams,67.5,Open,,M,135,110,170,415,SBD,Single-ply,5
B. Christain,67.5,Open,,M,-85,,,,SBD,Single-ply,DQ
H. Heath,67.5,Open,,M,-162.5,,,,SBD,Single-ply,DQ
D. Carroll,75,Open,,M,220,172.5,255,647.5,SBD,Single-ply,1
Don Jones #4,75,Open,,M,242.5,122.5,255,620,SBD,Single-ply,2
Mike Cissell,75,Open,,M,192.5,140,207.5,540,SBD,Single-ply,3
Larry Mistric,75,Open,,M,177.5,135,225,537.5,SBD,Single-ply,4
Dan Gay #1,75,Open,,M,185,127.5,220,532.5,SBD,Single-ply,5
A. Craig,75,Open,,M,182.5,122.5,220,525,SBD,Single-ply,6
Jim Rhodes,75,Open,,M,175,120,210,505,SBD,Single-ply,7
M. Boyd,75,Open,,M,142.5,100,190,432.5,SBD,Single-ply,8
K. Moorehead,75,Open,,M,135,95,177.5,407.5,SBD,Single-ply,9
Floyd Lyon,75,Open,,M,-240,,,,SBD,Single-ply,DQ
Mike Sharpe,75,Open,,M,-240,,,,SBD,Single-ply,DQ
Roger Bell,82.5,Open,,M,265,175,277.5,717.5,SBD,Single-ply,1
B. Foster,82.5,Open,,M,227.5,147.5,277.5,652.5,SBD,Single-ply,2
Danny Coffey,82.5,Open,,M,232.5,165,205,602.5,SBD,Single-ply,3
Henry Pitard,82.5,Open,,M,205,140,242.5,587.5,SBD,Single-ply,4
R. Jiles,82.5,Open,,M,182.5,117.5,252.5,552.5,SBD,Single-ply,5
S. Mccall,82.5,Open,,M,192.5,127.5,210,530,SBD,Single-ply,6
D. Antley,82.5,Open,,M,185,145,195,525,SBD,Single-ply,7
S. Ward,82.5,Open,,M,170,147.5,187.5,505,SBD,Single-ply,8
R. McDaniel,82.5,Open,,M,172.5,115,182.5,470,SBD,Single-ply,9
D. Alexander,82.5,Open,,M,135,97.5,192.5,425,SBD,Single-ply,10
Patty Dent,82.5,Open,,F,110,72.5,135,317.5,SBD,Single-ply,11
Wayne Smith,90,Open,,M,257.5,176.5,297.5,731.5,SBD,Single-ply,1
B. Bowie,90,Open,,M,237.5,150,277.5,665,SBD,Single-ply,2
Mark Rippetoe,90,Open,,M,230,155,255,640,SBD,Single-ply,3
G. Oeser,90,Open,,M,230,117.5,272.5,620,SBD,Single-ply,4
Al Slivinski,90,Open,,M,205,172.5,240,617.5,SBD,Single-ply,5
B. Capps,90,Open,,M,225,152.5,235,612.5,SBD,Single-ply,6
Charles Knight,90,Open,,M,200,140,212.5,552.5,SBD,Single-ply,7
R. Huber,90,Open,,M,192.5,135,215,542.5,SBD,Single-ply,8
Bob Frost,90,Open,,M,185,137.5,202.5,525,SBD,Single-ply,9
Charlie Perkins,100,Open,,M,282.5,200,312.5,795,SBD,Single-ply,1
S. Bowling,100,Open,,M,272.5,182.5,290,745,SBD,Single-ply,2
H. Holly,100,Open,,M,227.5,187.5,245,660,SBD,Single-ply,3
Frank Christman,100,Open,,M,247.5,165,237.5,650,SBD,Single-ply,4
J. Hall,100,Open,,M,237.5,147.5,237.5,622.5,SBD,Single-ply,5
A. Houston,100,Open,,M,207.5,145,240,592.5,SBD,Single-ply,6
J. Alexander,100,Open,,M,197.5,142.5,235,575,SBD,Single-ply,7
Steve Miller #1,100,Open,,M,-320,,,,SBD,Single-ply,DQ
M. Muzquiz,100,Open,,M,,,,,SBD,Single-ply,DQ
C. Willhite,100,Open,,M,,,,,SBD,Single-ply,DQ
K. King,110,Open,,M,295,182.5,272.5,750,SBD,Single-ply,1
Hal Hudson,110,Open,,M,257.5,190,282.5,730,SBD,Single-ply,2
R. Pate,110,Open,,M,260,160,260,680,SBD,Single-ply,3
Ricky Osborn,110,Open,,M,250,170,257.5,677.5,SBD,Single-ply,4
R. Gates,110,Open,,M,192.5,157.5,265,615,SBD,Single-ply,5
D. Cagle,110,Open,,M,227.5,160,222.5,610,SBD,Single-ply,6
A. McCann,110,Open,,M,205,152.5,242.5,600,SBD,Single-ply,7
K. Huey,110,Open,,M,192.5,142.5,230,565,SBD,Single-ply,8
Joe Regaldo,125,Open,,M,227.5,165,232.5,625,SBD,Single-ply,1
N. Gills,125,Open,,M,237.5,152.5,220,610,SBD,Single-ply,2
J. Puryear,125,Open,,M,195,125,227.5,547.5,SBD,Single-ply,3
Doug Patterson,125,Open,,M,-325,,,,SBD,Single-ply,DQ
J. Drew,125+,Open,,M,297.5,172.5,277.5,747.5,SBD,Single-ply,1
H. Crisp,125+,Open,,M,247.5,197.5,240,685,SBD,Single-ply,2
S. Barron,60,Teen 14-15,14-15,M,,,,382.5,SBD,Single-ply,1
S. Brown,56,Teen 14-15,14-15,M,,,,347.5,SBD,Single-ply,1
L. Brown,56,Teen 14-15,14-15,M,,,,332.5,SBD,Single-ply,2
K. Wall,56,Teen 14-15,14-15,M,117.5,67.5,147.5,332.5,SBD,Single-ply,3
R. Coleman,82.5,Teen 14-15,14-15,M,,,,455,SBD,Single-ply,1
S. Wilkins,67.5,Teen 14-15,14-15,M,,,,372.5,SBD,Single-ply,1
J. Windsor,60,Teen 14-15,14-15,M,,,,327.5,SBD,Single-ply,2
K. Viator,52,Teen 14-15,14-15,M,,,,255,SBD,Single-ply,1
T. Pyles,67.5,Teen 14-15,14-15,M,,,,335,SBD,Single-ply,2
T. Lindsey,56,Teen 14-15,14-15,M,,,,295,SBD,Single-ply,4
B. Bomfort,52,Teen 14-15,14-15,M,,,,210,SBD,Single-ply,2
M. Humphries,67.5,Teen 14-15,14-15,M,,,,,SBD,Single-ply,DQ
B. Christain,67.5,Teen 14-15,14-15,M,-85,,,,SBD,Single-ply,DQ
T. Johnson,110,Teen 14-15,14-15,M,,,,,SBD,Single-ply,DQ
N. Payton,67.5,Teen 16-17,16-17,M,,,,540,SBD,Single-ply,1
Joe Paul Beasley,67.5,Teen 16-17,16-17,M,170,102.5,187.5,460,SBD,Single-ply,3
J. Harrison,75,Teen 16-17,16-17,M,,,,540,SBD,Single-ply,1
S. Winnon,67.5,Teen 16-17,16-17,M,,,,472.5,SBD,Single-ply,2
T. Sawyer,56,Teen 16-17,16-17,M,,,,382.5,SBD,Single-ply,1
R. Steinsiek,52,Teen 16-17,16-17,M,112.5,67.5,145,325,SBD,Single-ply,1
S. Pyles,75,Teen 16-17,16-17,M,,,,395,SBD,Single-ply,2
Richard Poindexter,56,Teen 16-17,16-17,M,85,72.5,132.5,290,SBD,Single-ply,2
L. Johnson,60,Teen 16-17,16-17,M,,,,322.5,SBD,Single-ply,1
Mark Freeman,90,Teen 16-17,16-17,M,,,,450,SBD,Single-ply,1
D. Everitt,75,Teen 16-17,16-17,M,,,,365,SBD,Single-ply,3
T. Lacy,60,Teen 16-17,16-17,M,,,,277.5,SBD,Single-ply,2
D. Riley,75,Teen 16-17,16-17,M,,,,,SBD,Single-ply,DQ
R. Jackson,82.5,Teen 18-19,18-19,M,,,,615,SBD,Single-ply,1
Ephraim Johnson,90,Teen 18-19,18-19,M,,,,625,SBD,Single-ply,1
R. McMoran,75,Teen 18-19,18-19,M,,,,517.5,SBD,Single-ply,1
S. Kotch Jr,90,Teen 18-19,18-19,M,,,,600,SBD,Single-ply,2
Cory Langford,82.5,Teen 18-19,18-19,M,,,,537.5,SBD,Single-ply,3
R. Manning,82.5,Teen 18-19,18-19,M,,,,545,SBD,Single-ply,2
D. Harris,90,Teen 18-19,18-19,M,,,,587.5,SBD,Single-ply,3
B. Boyer,75,Teen 18-19,18-19,M,,,,485,SBD,Single-ply,3
D. Scroggins,60,Teen 18-19,18-19,M,,,,405,SBD,Single-ply,1
J. Raley,75,Teen 18-19,18-19,M,,,,480,SBD,Single-ply,4
T. Mitchell,75,Teen 18-19,18-19,M,,,,502.5,SBD,Single-ply,2
David Person,100,Teen 18-19,18-19,M,,,,545,SBD,Single-ply,1
C. Scrivener,67.5,Teen 18-19,18-19,M,,,,425,SBD,Single-ply,1
D. Smith,90,Teen 18-19,18-19,M,,,,497.5,SBD,Single-ply,4
C. Lemons,82.5,Teen 18-19,18-19,M,,,,460,SBD,Single-ply,4
T. Nick,90,Teen 18-19,18-19,M,,,,490,SBD,Single-ply,5
D. Craft,100,Teen 18-19,18-19,M,,,,357.5,SBD,Single-ply,2
K. King,110,Masters 40-49,40-49,M,295,182.5,272.5,750,SBD,Single-ply,1
Hal Hudson,110,Masters 40-49,40-49,M,257.5,190,282.5,730,SBD,Single-ply,2
Henry Pitard,82.5,Masters 40-49,40-49,M,205,140,242.5,587.5,SBD,Single-ply,1
H. Holly,100,Masters 40-49,40-49,M,227.5,187.5,245,660,SBD,Single-ply,1
R. Pate,110,Masters 40-49,40-49,M,260,160,260,680,SBD,Single-ply,3
W. Johnson,82.5,Masters 40-49,40-49,M,,,,522.5,SBD,Single-ply,2
E. Kelly Jr,82.5,Masters 40-49,40-49,M,,,,405,SBD,Single-ply,3
George Stevens,75,Masters 50+,50-999,M,,,,295,SBD,Single-ply,1
