Division,WeightClassKg,Place,Name,Team,BodyweightKg,Best3SquatKg,Best3BenchKg,Best3DeadliftKg,TotalKg,Equipment,Event,Sex
Boys,51.71,1,Diego Pena,Roma,51.44,170.1,95.25,181.44,446.79,Single-ply,SBD,M
Boys,51.71,2,Eric Oliva,Laredo United South,51.71,156.49,86.18,161.03,403.7,Single-ply,SBD,M
Boys,55.79,3,Martin Villarreal,Laredo United South,51.89,136.08,83.91,183.7,403.7,Single-ply,SBD,M
Boys,55.79,4,Edgar Barbosa,Laredo Cigarroa,51.8,158.76,81.65,145.15,385.55,Single-ply,SBD,M
Boys,51.71,5,Hector Villegas,Roma,51.26,145.15,70.31,156.49,371.95,Single-ply,SBD,M
Boys,51.71,6,Francisco Fuentes,Zapata,48.9,133.81,68.04,127.01,328.85,Single-ply,SBD,M
Boys,51.71,7,Juan Muniz,Laredo Cigarroa,51.07,113.4,70.31,122.47,306.17,Single-ply,SBD,M
Boys,51.71,8,Joseph Saucedo,Laredo United,51.17,88.45,45.36,102.06,235.87,Single-ply,SBD,M
Boys,51.71,DQ,Jake Gutierrez,Zapata,51.71,,,,,Single-ply,SBD,M
Boys,67.13,1,Cesar Alfaro,Laredo United South,60.06,181.44,122.47,188.24,492.15,Single-ply,SBD,M
Boys,67.13,2,David Lopez,Laredo United South,60.06,165.56,113.4,190.51,469.47,Single-ply,SBD,M
Boys,59.87,3,Juan Delgado,Roma,59.69,163.29,97.52,183.7,444.52,Single-ply,SBD,M
Boys,59.87,4,Mario Cantu,Laredo Cigarroa,59.51,156.49,92.99,176.9,426.38,Single-ply,SBD,M
Boys,59.87,5,Juan Carmona,Laredo Nixon,58.42,113.4,61.23,124.74,299.37,Single-ply,SBD,M
Boys,59.87,DQ,David Sanchez #2,Laredo Martin,59.6,,,,,Single-ply,SBD,M
Boys,67.13,1,Ruben Salinas,Roma,66.77,269.89,138.35,226.8,635.03,Single-ply,SBD,M
Boys,67.13,2,Carlos Vedarte,Laredo United South,61.14,158.76,97.52,170.1,426.38,Single-ply,SBD,M
Boys,74.84,DQ,Xavier Delgado,Zapata,67.31,,,,,Single-ply,SBD,M
Boys,74.84,1,Jose de la Rosa,Roma,73.75,226.8,129.27,226.8,582.87,Single-ply,SBD,M
Boys,74.84,2,Edgar Trejo,Laredo United South,74.3,183.7,106.59,208.65,498.95,Single-ply,SBD,M
Boys,74.84,3,John Trevino,Hebbronville,72.67,179.17,92.99,199.58,471.74,Single-ply,SBD,M
Boys,74.84,4,Frank Saucedo,Laredo United,73.39,195.04,90.72,179.17,464.93,Single-ply,SBD,M
Boys,82.1,5,Marco DeLuna,Laredo United South,75.02,167.83,106.59,176.9,451.32,Single-ply,SBD,M
Boys,74.84,6,Jose Mosqueda,Laredo Cigarroa,68.4,161.03,81.65,201.85,444.52,Single-ply,SBD,M
Boys,74.84,7,Eric Estrada,Roma,73.94,149.69,97.52,161.03,408.23,Single-ply,SBD,M
Boys,74.84,8,Enrique Gonzalez,Laredo United,73.3,145.15,95.25,136.08,376.48,Single-ply,SBD,M
Boys,82.1,9,Jorge Cardenas,Laredo United,75.02,127.01,83.91,158.76,369.68,Single-ply,SBD,M
Boys,74.84,10,Javier Botello,Laredo Nixon,74.84,122.47,79.38,158.76,360.61,Single-ply,SBD,M
Boys,74.84,DQ,Sergio Garcia,Laredo Nixon,74.84,,,,,Single-ply,SBD,M
Boys,82.1,1,Victor Ramos,Laredo United South,81.65,217.72,111.13,208.65,537.51,Single-ply,SBD,M
Boys,82.1,2,Adrain Munoz,Laredo Martin,81.37,181.44,102.06,199.58,483.08,Single-ply,SBD,M
Boys,82.1,3,Daniel Briones,Laredo United South,81.01,176.9,104.33,190.51,471.74,Single-ply,SBD,M
Boys,82.1,4,David Galvan,Laredo Cigarroa,80.74,170.1,86.18,208.65,464.93,Single-ply,SBD,M
Boys,82.1,DQ,Marcos Resendes,Roma,82.1,,,,,Single-ply,SBD,M
Boys,89.81,DQ,Jose Luis Fuentes,Laredo United,82.33,,,,,Single-ply,SBD,M
Boys,82.1,DQ,Joel Elizondo,Zapata,81.37,,,,,Single-ply,SBD,M
Boys,89.81,1,Carlos Muñoz,Laredo Nixon,89.18,195.04,102.06,238.14,535.24,Single-ply,SBD,M
Boys,89.81,2,Frank Garcia,Laredo Martin,83.46,183.7,90.72,176.9,451.32,Single-ply,SBD,M
Boys,99.79,3,Danny Cordova,Laredo United,89.99,113.4,68.04,158.76,340.19,Single-ply,SBD,M
Boys,89.81,DQ,Oscar Mohammed,Laredo United,89.72,,,,,Single-ply,SBD,M
Boys,89.81,DQ,Robert Gallegos,Laredo Martin,89.72,,,,,Single-ply,SBD,M
Boys,89.81,DQ,Benjamin Uribe,Laredo Nixon,89.81,,,,,Single-ply,SBD,M
Boys,99.79,1,Erick Fernandez,Laredo Nixon,98.25,238.14,151.95,238.14,628.23,Single-ply,SBD,M
Boys,99.79,2,Jose Coreas,Laredo Cigarroa,93.44,249.48,117.93,226.8,594.21,Single-ply,SBD,M
Boys,99.79,3,Heriberto Canales,Hebbronville,98.52,240.4,122.47,226.8,589.67,Single-ply,SBD,M
Boys,99.79,4,Jorge Martinez,Laredo United,95.16,206.38,117.93,192.78,517.1,Single-ply,SBD,M
Boys,99.79,5,Jonathan Vela,Roma,97.25,199.58,111.13,185.97,496.68,Single-ply,SBD,M
Boys,99.79,6,Rogelio Rodriguez,Zapata,95.25,190.51,106.59,195.04,492.15,Single-ply,SBD,M
Boys,99.79,7,Julio Barron,Laredo Cigarroa,93.17,176.9,113.4,176.9,467.2,Single-ply,SBD,M
Boys,99.79,8,Gabriel Martinez,Laredo Nixon,91.99,149.69,81.65,165.56,396.89,Single-ply,SBD,M
Boys,99.79,DQ,Silvestre Bustamante,Zapata,99.79,,,,,Single-ply,SBD,M
Boys,99.79,DQ,Guadalupe Gonzalez,Zapata,99.79,,,,,Single-ply,SBD,M
Boys,99.79,DQ,Luis Botello,Laredo Nixon,99.79,,,,,Single-ply,SBD,M
Boys,99.79,DQ,Gustavo Guzman,Laredo Martin,97.7,,,,,Single-ply,SBD,M
Boys,109.77,1,Victor Martinez,Laredo Martin,109.77,281.23,170.1,226.8,678.12,Single-ply,SBD,M
Boys,124.74,2,Frank Villarreal,Laredo Martin,109.86,272.16,140.61,215.46,628.23,Single-ply,SBD,M
Boys,109.77,3,Jorge Gutierrez,Zapata,109.23,217.72,142.88,215.46,576.06,Single-ply,SBD,M
Boys,109.77,4,Rolando Garza,Hebbronville,107.5,204.12,129.27,231.33,564.72,Single-ply,SBD,M
Boys,109.77,5,Orlando Rodriguez,Laredo Cigarroa,101.15,181.44,90.72,210.92,483.08,Single-ply,SBD,M
Boys,109.77,6,Victor Nenque,Laredo Nixon,104.14,154.22,95.25,170.1,419.57,Single-ply,SBD,M
Boys,109.77,DQ,Albert Martinez,Laredo Martin,105.6,,,,,Single-ply,SBD,M
Boys,109.77,DQ,Paul Gonzalez,Laredo United South,109.23,,,,,Single-ply,SBD,M
Boys,109.77,DQ,Juan Gonzalez,Laredo United,108.86,,,,,Single-ply,SBD,M
Boys,109.77,DQ,Ricky Martinez,Laredo United,108.23,,,,,Single-ply,SBD,M
Boys,124.74,1,Arturo Velasquez,Roma,118.21,281.23,151.95,215.46,648.64,Single-ply,SBD,M
Boys,124.74,2,Francisco Moreno #1,Zapata,113.4,263.08,111.13,242.67,616.89,Single-ply,SBD,M
Boys,124.74,3,Gilbert Hernandez,Laredo Cigarroa,118.12,199.58,115.67,201.85,517.1,Single-ply,SBD,M
Boys,124.74,4,Isel Claudio,Laredo Cigarroa,110.22,176.9,108.86,204.12,489.88,Single-ply,SBD,M
Boys,124.74,5,Xavier Rangel,Laredo Nixon,117.21,190.51,104.33,185.97,480.81,Single-ply,SBD,M
Boys,124.74,DQ,Manuel Navarro,Zapata,124.74,,,,,Single-ply,SBD,M
Boys,124.74+,1,Jose Flores #2,Laredo Cigarroa,145.42,331.12,154.22,240.4,725.75,Single-ply,SBD,M
Boys,124.74+,2,Jose Gonzalez #16,Roma,150.41,258.55,149.69,217.72,625.96,Single-ply,SBD,M
Boys,124.74+,3,JR Sandoval,Laredo United,150.86,260.82,111.13,215.46,587.4,Single-ply,SBD,M
Boys,124.74+,4,Rudy Flores,Laredo United South,135.62,195.04,117.93,190.51,503.49,Single-ply,SBD,M
Boys,124.74+,5,Gerardo Urdiales,Laredo Nixon,136.26,172.37,111.13,204.12,487.61,Single-ply,SBD,M
Boys,124.74+,6,Ruben Hinojosa,Roma,139.43,204.12,111.13,163.29,478.54,Single-ply,SBD,M
Boys,124.74+,7,Leo Espinioza,Laredo Martin,133.99,183.7,95.25,195.04,474,Single-ply,SBD,M
Boys,124.74+,8,Eloy Robles,Laredo Martin,125.92,183.7,97.52,188.24,469.47,Single-ply,SBD,M
Boys,124.74+,DQ,Eduardo Sanchez,Zapata,130.09,226.8,,,,Single-ply,SBD,M
