Division,WeightClassKg,Place,Name,Team,BodyweightKg,Best3SquatKg,Best3BenchKg,Best3DeadliftKg,TotalKg,Equipment,Event,Sex
Boys,51.71,1,Chris Edwards,Aransas Pass,49.9,120.2,72.57,138.35,331.12,Single-ply,SBD,M
Boys,51.71,2,Seth Munoz,Mathis,50.8,115.67,63.5,151.95,331.12,Single-ply,SBD,M
Boys,55.79,1,Jose Hernandez #13,Corpus Christi West Oso,54.88,176.9,92.99,188.24,458.13,Single-ply,SBD,M
Boys,55.79,2,Evan Smith,Port Lavaca Calhoun,55.79,140.61,79.38,183.7,403.7,Single-ply,SBD,M
Boys,55.79,3,Wha Htoo,Port Lavaca Calhoun,52.16,120.2,68.04,140.61,328.85,Single-ply,SBD,M
Boys,55.79,4,Joshua Trevino,Corpus Christi West Oso,54.43,122.47,61.23,133.81,317.51,Single-ply,SBD,M
Boys,55.79,5,Mark Moreno,Odem,55.34,113.4,56.7,142.88,312.98,Single-ply,SBD,M
Boys,55.79,6,Anthony Ramirez,Corpus Christi West Oso,53.52,106.59,68.04,136.08,310.71,Single-ply,SBD,M
Boys,55.79,7,Jude Punzalan,Santa Gertrudis Academy,55.79,106.59,63.5,124.74,294.84,Single-ply,SBD,M
Boys,55.79,8,Jordan Barrera,Santa Gertrudis Academy,51.89,92.99,56.7,124.74,274.42,Single-ply,SBD,M
Boys,59.87,1,Jakob Cortez,Port Lavaca Calhoun,59.42,204.12,102.06,197.31,503.49,Single-ply,SBD,M
Boys,59.87,2,Lucas Lara,Mathis,58.97,179.17,106.59,204.12,489.88,Single-ply,SBD,M
Boys,59.87,3,Tyler Reyes,Aransas Pass,58.97,154.22,104.33,183.7,442.25,Single-ply,SBD,M
Boys,59.87,4,Gabriel Herrera,Mathis,58.06,136.08,81.65,170.1,387.82,Single-ply,SBD,M
Boys,59.87,5,Michael Lopez,Robstown,58.97,138.35,83.91,145.15,367.41,Single-ply,SBD,M
Boys,59.87,6,Aiden Gonzales,Odem,59.87,124.74,63.5,136.08,324.32,Single-ply,SBD,M
Boys,59.87,7,Jack Edwards,Santa Gertrudis Academy,59.42,108.86,65.77,140.61,315.25,Single-ply,SBD,M
Boys,59.87,DQ,Tony De La Rosa,Santa Gertrudis Academy,59.87,,,,,Single-ply,SBD,M
Boys,67.13,1,Andrew Garcia,Mathis,65.77,204.12,122.47,219.99,546.58,Single-ply,SBD,M
Boys,67.13,2,Richard Rea,Freer,65.77,204.12,115.67,213.19,532.97,Single-ply,SBD,M
Boys,67.13,3,Ryan Fransham,Orange Grove,66.77,174.63,90.72,172.37,437.72,Single-ply,SBD,M
Boys,67.13,4,Dominic Sanchez,Mathis,60.1,149.69,111.13,149.69,410.5,Single-ply,SBD,M
Boys,67.13,5,Adan Diaz,Aransas Pass,65.32,117.93,97.52,156.49,371.95,Single-ply,SBD,M
Boys,67.13,6,Jesus Gonzalez,Benavides,63.05,145.15,68.04,142.88,356.07,Single-ply,SBD,M
Boys,67.13,7,Gilbert Acuna,Corpus Christi West Oso,63.28,124.74,58.97,138.35,322.05,Single-ply,SBD,M
Boys,67.13,8,Lane Stone,Santa Gertrudis Academy,66.68,111.13,61.23,142.88,315.25,Single-ply,SBD,M
Boys,67.13,9,Fabian Fraga,Benavides,62.14,61.23,72.57,129.27,263.08,Single-ply,SBD,M
Boys,67.13,10,Dylan Vela,Santa Gertrudis Academy,66.68,92.99,47.63,102.06,242.67,Single-ply,SBD,M
Boys,67.13,11,Clinton Reiter,Aransas Pass,62.69,83.91,56.7,72.57,213.19,Single-ply,SBD,M
Boys,74.84,1,Felix Del Rio,Robstown,70.31,204.12,127.01,201.85,532.97,Single-ply,SBD,M
Boys,74.84,2,Aarron Champion,Mathis,73.48,183.7,115.67,183.7,483.08,Single-ply,SBD,M
Boys,74.84,3,Carlos Gonzales,Mathis,74.12,176.9,111.13,190.51,478.54,Single-ply,SBD,M
Boys,74.84,4,Andrew Martinez,Aransas Pass,73.16,183.7,102.06,190.51,476.27,Single-ply,SBD,M
Boys,74.84,5,Nick Teer,Aransas Pass,73.48,163.29,111.13,190.51,464.93,Single-ply,SBD,M
Boys,74.84,6,Josh Hernandez,Banquete,73.48,174.63,111.13,176.9,462.66,Single-ply,SBD,M
Boys,74.84,7,John Robali,Robstown,67.59,176.9,95.25,158.76,430.91,Single-ply,SBD,M
Boys,74.84,8,Adrian Perez,Robstown,74.84,136.08,74.84,149.69,360.61,Single-ply,SBD,M
Boys,74.84,9,Nathan Reyes,Corpus Christi West Oso,72.57,113.4,74.84,149.69,337.93,Single-ply,SBD,M
Boys,82.1,1,Matt Garza,Corpus Christi West Oso,79.47,185.97,133.81,190.51,510.29,Single-ply,SBD,M
Boys,82.1,2,Daniel Muller,Port Lavaca Calhoun,78.02,181.44,108.86,199.58,489.88,Single-ply,SBD,M
Boys,82.1,3,Landon Garza,Odem,82.1,199.58,102.06,172.37,474,Single-ply,SBD,M
Boys,82.1,4,Adrian Davila,Aransas Pass,78.93,147.42,120.2,165.56,433.18,Single-ply,SBD,M
Boys,82.1,5,Grayson May,Santa Gertrudis Academy,82.1,124.74,115.67,151.95,392.36,Single-ply,SBD,M
Boys,82.1,6,Rey Peralez,Benavides,79.38,149.69,86.18,149.69,385.55,Single-ply,SBD,M
Boys,89.81,1,Jaime Rios #1,Port Lavaca Calhoun,89.36,267.62,154.22,251.74,673.58,Single-ply,SBD,M
Boys,89.81,2,Ivan Naranjo,Robstown,88.45,213.19,161.03,226.8,601.01,Single-ply,SBD,M
Boys,89.81,3,Orlando Gonzales,Odem,83.91,219.99,133.81,222.26,576.06,Single-ply,SBD,M
Boys,89.81,4,Cody Rosas,Robstown,89.36,215.46,117.93,215.46,548.85,Single-ply,SBD,M
Boys,89.81,5,Demeteri Sanchez,Corpus Christi London,89.81,188.24,102.06,199.58,489.88,Single-ply,SBD,M
Boys,89.81,6,Toby Medina,Mathis,89.36,183.7,106.59,183.7,474,Single-ply,SBD,M
Boys,89.81,7,Dominic Zamaroa,Odem,82.55,163.29,108.86,170.1,442.25,Single-ply,SBD,M
Boys,89.81,8,Joey Gamez,Odem,86.18,165.56,102.06,163.29,430.91,Single-ply,SBD,M
Boys,89.81,9,Brandon Beltran,Odem,83.91,181.44,83.91,151.95,417.3,Single-ply,SBD,M
Boys,89.81,10,Matthew Hernandez,Odem,83.91,158.76,83.91,158.76,401.43,Single-ply,SBD,M
Boys,89.81,11,Jordan Sanchez,Santa Gertrudis Academy,87.09,70.31,63.5,120.2,254.01,Single-ply,SBD,M
Boys,99.79,1,Ryan Rasbury,Mathis,98.43,263.08,136.08,249.48,648.64,Single-ply,SBD,M
Boys,99.79,2,Nick Rodriguez #2,Port Lavaca Calhoun,93.44,222.26,115.67,231.33,569.26,Single-ply,SBD,M
Boys,99.79,3,Michael Barajas,Mathis,93.44,210.92,111.13,190.51,512.56,Single-ply,SBD,M
Boys,99.79,4,Joseph Beebe,Port Lavaca Calhoun,90.26,185.97,124.74,197.31,508.02,Single-ply,SBD,M
Boys,99.79,5,Zamien Anthony,Mathis,98.88,185.97,111.13,165.56,462.66,Single-ply,SBD,M
Boys,99.79,6,Armando Benavides,Corpus Christi West Oso,95.71,181.44,104.33,170.1,455.86,Single-ply,SBD,M
Boys,99.79,7,Vicente Zavala,Santa Gertrudis Academy,99.79,165.56,102.06,188.24,455.86,Single-ply,SBD,M
Boys,99.79,8,Keigan Reagan,Aransas Pass,91.17,115.67,83.91,136.08,335.66,Single-ply,SBD,M
Boys,109.77,1,Brandon Rodriguez #2,Robstown,109.77,215.46,165.56,240.4,621.42,Single-ply,SBD,M
Boys,109.77,2,Isaiah Rios,Corpus Christi West Oso,105.23,226.8,142.88,206.38,576.06,Single-ply,SBD,M
Boys,109.77,3,Richard Alvarado,Aransas Pass,103.42,201.85,140.61,229.06,571.53,Single-ply,SBD,M
Boys,109.77,4,Lance Lopez,Orange Grove,108.23,226.8,124.74,201.85,553.38,Single-ply,SBD,M
Boys,109.77,5,Edward Vargas,Robstown,105.69,188.24,129.27,213.19,530.7,Single-ply,SBD,M
Boys,109.77,6,Mason Charo,Orange Grove,109.77,183.7,124.74,181.44,489.88,Single-ply,SBD,M
Boys,109.77,7,Avery Flood,Port Lavaca Calhoun,109.32,190.51,127.01,167.83,485.34,Single-ply,SBD,M
Boys,109.77,8,Jarrett Barden,Santa Gertrudis Academy,101.15,136.08,88.45,174.63,399.16,Single-ply,SBD,M
Boys,109.77,DQ,Javier Jasso,Corpus Christi London,102.51,,,,,Single-ply,SBD,M
Boys,124.74,1,Juan LeBron,Port Lavaca Calhoun,122.92,292.57,147.42,288.03,728.02,Single-ply,SBD,M
Boys,124.74,2,Julian Gomez,Odem,113.4,242.67,156.49,222.26,621.42,Single-ply,SBD,M
Boys,124.74,3,Steve Peña #2,Robstown,110.68,226.8,174.63,204.12,605.55,Single-ply,SBD,M
Boys,124.74,4,Chris Chavez,Corpus Christi West Oso,118.3,224.53,147.42,222.26,594.21,Single-ply,SBD,M
Boys,124.74,5,Paul Pena,Robstown,122.92,251.74,120.2,215.46,587.4,Single-ply,SBD,M
Boys,124.74,6,Diego Gutierrez,Mathis,120.2,215.46,138.35,204.12,557.92,Single-ply,SBD,M
Boys,124.74,7,Israel Espinoza,Robstown,122.47,183.7,104.33,183.7,471.74,Single-ply,SBD,M
Boys,124.74+,1,Leo Madera,Port Lavaca Calhoun,145.6,292.57,172.37,260.82,725.75,Single-ply,SBD,M
Boys,124.74+,2,Marcos Romero,Odem,136.53,285.76,183.7,242.67,712.14,Single-ply,SBD,M
Boys,124.74+,3,Ray Martinez,Port Lavaca Calhoun,137.89,290.3,176.9,213.19,680.39,Single-ply,SBD,M
Boys,124.74+,4,Will Atwood,Orange Grove,148.32,254.01,147.42,244.94,646.37,Single-ply,SBD,M
Boys,124.74+,5,Ruben Leal,Aransas Pass,128.37,249.48,163.29,204.12,616.89,Single-ply,SBD,M
Boys,124.74+,6,Aarron Flores,Santa Gertrudis Academy,148.78,249.48,111.13,231.33,591.94,Single-ply,SBD,M
